<?xml version="1.0" encoding="UTF-8"?>
<glyph name="ae" format="1">
  <advance width="863"/>
  <unicode hex="00E6"/>
  <outline>
    <contour>
      <point x="834" y="217" type="line"/>
      <point x="484" y="217" type="line"/>
      <point x="489" y="130"/>
      <point x="528" y="88"/>
      <point x="603" y="88" type="curve" smooth="yes"/>
      <point x="674" y="88"/>
      <point x="711" y="130"/>
      <point x="711" y="170" type="curve"/>
      <point x="834" y="170" type="line"/>
      <point x="834" y="166" type="line" smooth="yes"/>
      <point x="834" y="71"/>
      <point x="754" y="-13"/>
      <point x="602" y="-13" type="curve" smooth="yes"/>
      <point x="513" y="-13"/>
      <point x="449" y="18"/>
      <point x="409" y="69" type="curve"/>
      <point x="361" y="22"/>
      <point x="288" y="-13"/>
      <point x="203" y="-13" type="curve" smooth="yes"/>
      <point x="85" y="-13"/>
      <point x="34" y="58"/>
      <point x="34" y="143" type="curve" smooth="yes"/>
      <point x="34" y="153" type="line" smooth="yes"/>
      <point x="34" y="268"/>
      <point x="118" y="304"/>
      <point x="221" y="319" type="curve" smooth="yes"/>
      <point x="354" y="340" type="line"/>
      <point x="354" y="342" type="line" smooth="yes"/>
      <point x="354" y="409"/>
      <point x="333" y="442"/>
      <point x="266" y="442" type="curve" smooth="yes"/>
      <point x="194" y="442"/>
      <point x="178" y="401"/>
      <point x="178" y="355" type="curve"/>
      <point x="54" y="355" type="line"/>
      <point x="54" y="364" type="line" smooth="yes"/>
      <point x="54" y="453"/>
      <point x="100" y="543"/>
      <point x="269" y="543" type="curve" smooth="yes"/>
      <point x="358" y="543"/>
      <point x="407" y="517"/>
      <point x="434" y="474" type="curve"/>
      <point x="469" y="516"/>
      <point x="522" y="543"/>
      <point x="596" y="543" type="curve" smooth="yes"/>
      <point x="760" y="543"/>
      <point x="834" y="429"/>
      <point x="834" y="278" type="curve" smooth="yes"/>
    </contour>
    <contour>
      <point x="360" y="155" type="curve"/>
      <point x="365" y="159" type="line"/>
      <point x="358" y="187"/>
      <point x="354" y="219"/>
      <point x="354" y="252" type="curve" smooth="yes"/>
      <point x="354" y="258" type="line"/>
      <point x="244" y="240" type="line" smooth="yes"/>
      <point x="189" y="230"/>
      <point x="164" y="205"/>
      <point x="164" y="164" type="curve" smooth="yes"/>
      <point x="164" y="156" type="line" smooth="yes"/>
      <point x="164" y="123"/>
      <point x="186" y="91"/>
      <point x="239" y="91" type="curve" smooth="yes"/>
      <point x="309" y="91"/>
      <point x="347" y="133"/>
    </contour>
    <contour>
      <point x="594" y="442" type="curve" smooth="yes"/>
      <point x="524" y="442"/>
      <point x="489" y="397"/>
      <point x="484" y="313" type="curve"/>
      <point x="703" y="313" type="line"/>
      <point x="699" y="397"/>
      <point x="664" y="442"/>
    </contour>
  </outline>
  <lib>
    <dict>
      <key>com.fontlab.hintData</key>
      <dict>
        <key>hhints</key>
        <array>
          <dict>
            <key>position</key>
            <integer>-13</integer>
            <key>width</key>
            <integer>101</integer>
          </dict>
          <dict>
            <key>position</key>
            <integer>217</integer>
            <key>width</key>
            <integer>96</integer>
          </dict>
          <dict>
            <key>position</key>
            <integer>442</integer>
            <key>width</key>
            <integer>101</integer>
          </dict>
        </array>
        <key>vhints</key>
        <array>
          <dict>
            <key>position</key>
            <integer>34</integer>
            <key>width</key>
            <integer>130</integer>
          </dict>
          <dict>
            <key>position</key>
            <integer>54</integer>
            <key>width</key>
            <integer>124</integer>
          </dict>
          <dict>
            <key>position</key>
            <integer>354</integer>
            <key>width</key>
            <integer>130</integer>
          </dict>
          <dict>
            <key>position</key>
            <integer>703</integer>
            <key>width</key>
            <integer>131</integer>
          </dict>
        </array>
      </dict>
    </dict>
  </lib>
</glyph>
