<?xml version="1.0" encoding="UTF-8"?>
<glyph name="asciicircum" format="1">
  <advance width="600"/>
  <unicode hex="005E"/>
  <outline>
    <contour>
      <point x="364" y="780" type="line"/>
      <point x="579" y="267" type="line"/>
      <point x="449" y="267" type="line"/>
      <point x="300" y="640" type="line"/>
      <point x="151" y="267" type="line"/>
      <point x="21" y="267" type="line"/>
      <point x="236" y="780" type="line"/>
    </contour>
  </outline>
  <lib>
    <dict>
      <key>com.fontlab.hintData</key>
      <dict>
        <key>hhints</key>
        <array>
          <dict>
            <key>position</key>
            <integer>760</integer>
            <key>width</key>
            <integer>20</integer>
          </dict>
        </array>
      </dict>
    </dict>
  </lib>
</glyph>
