<?xml version="1.0" encoding="UTF-8"?>
<glyph name="three" format="1">
  <advance width="600"/>
  <unicode hex="0033"/>
  <outline>
    <contour>
      <point x="174" y="250" type="curve"/>
      <point x="47" y="250" type="line"/>
      <point x="47" y="238" type="line" smooth="yes"/>
      <point x="47" y="82"/>
      <point x="128" y="-12"/>
      <point x="300" y="-12" type="curve" smooth="yes"/>
      <point x="461" y="-12"/>
      <point x="558" y="88"/>
      <point x="558" y="203" type="curve" smooth="yes"/>
      <point x="558" y="220" type="line" smooth="yes"/>
      <point x="558" y="304.919"/>
      <point x="515.068" y="359.871"/>
      <point x="457" y="390" type="curve"/>
      <point x="442.224" y="397"/>
      <point x="441.918" y="399"/>
      <point x="456" y="406" type="curve"/>
      <point x="510.497" y="435.766"/>
      <point x="553" y="487.743"/>
      <point x="553" y="568" type="curve" smooth="yes"/>
      <point x="553" y="585" type="line" smooth="yes"/>
      <point x="553" y="696"/>
      <point x="469" y="792"/>
      <point x="300" y="792" type="curve" smooth="yes"/>
      <point x="129" y="792"/>
      <point x="52" y="704"/>
      <point x="52" y="542" type="curve" smooth="yes"/>
      <point x="52" y="520" type="line"/>
      <point x="179" y="520" type="line"/>
      <point x="179" y="650"/>
      <point x="202" y="701"/>
      <point x="295" y="701" type="curve" smooth="yes"/>
      <point x="305" y="701" type="line" smooth="yes"/>
      <point x="389" y="701"/>
      <point x="420" y="651"/>
      <point x="420" y="573" type="curve" smooth="yes"/>
      <point x="420" y="565" type="line" smooth="yes"/>
      <point x="420" y="481"/>
      <point x="387" y="443"/>
      <point x="308" y="443" type="curve" smooth="yes"/>
      <point x="200" y="443" type="line"/>
      <point x="200" y="353" type="line"/>
      <point x="312" y="353" type="line" smooth="yes"/>
      <point x="392" y="353"/>
      <point x="425" y="310"/>
      <point x="425" y="224" type="curve" smooth="yes"/>
      <point x="425" y="211" type="line" smooth="yes"/>
      <point x="425" y="120"/>
      <point x="381" y="79"/>
      <point x="305" y="79" type="curve" smooth="yes"/>
      <point x="295" y="79" type="line" smooth="yes"/>
      <point x="206" y="79"/>
      <point x="174" y="129"/>
    </contour>
  </outline>
  <lib>
    <dict>
      <key>com.fontlab.hintData</key>
      <dict>
        <key>hhints</key>
        <array>
          <dict>
            <key>position</key>
            <integer>-12</integer>
            <key>width</key>
            <integer>91</integer>
          </dict>
          <dict>
            <key>position</key>
            <integer>353</integer>
            <key>width</key>
            <integer>90</integer>
          </dict>
          <dict>
            <key>position</key>
            <integer>701</integer>
            <key>width</key>
            <integer>91</integer>
          </dict>
        </array>
        <key>vhints</key>
        <array>
          <dict>
            <key>position</key>
            <integer>52</integer>
            <key>width</key>
            <integer>127</integer>
          </dict>
          <dict>
            <key>position</key>
            <integer>425</integer>
            <key>width</key>
            <integer>133</integer>
          </dict>
        </array>
      </dict>
    </dict>
  </lib>
</glyph>
