<?xml version="1.0" encoding="UTF-8"?>
<glyph name="Oslash" format="1">
  <advance width="638"/>
  <unicode hex="00D8"/>
  <outline>
    <contour>
      <point x="57" y="410" type="curve"/>
      <point x="57" y="370" type="line" smooth="yes"/>
      <point x="57" y="247"/>
      <point x="75" y="157"/>
      <point x="112" y="95" type="curve"/>
      <point x="54" y="0" type="line"/>
      <point x="112" y="0" type="line"/>
      <point x="144" y="54" type="line"/>
      <point x="188" y="9"/>
      <point x="248" y="-11"/>
      <point x="324" y="-11" type="curve" smooth="yes"/>
      <point x="503" y="-11"/>
      <point x="592" y="100"/>
      <point x="592" y="370" type="curve" smooth="yes"/>
      <point x="592" y="410" type="line" smooth="yes"/>
      <point x="592" y="537"/>
      <point x="572" y="630"/>
      <point x="532" y="691" type="curve"/>
      <point x="586" y="780" type="line"/>
      <point x="528" y="780" type="line"/>
      <point x="498" y="731" type="line"/>
      <point x="455" y="772"/>
      <point x="397" y="791"/>
      <point x="324" y="791" type="curve" smooth="yes"/>
      <point x="146" y="791"/>
      <point x="57" y="680"/>
    </contour>
    <contour>
      <point x="518" y="410" type="curve"/>
      <point x="518" y="370" type="line" smooth="yes"/>
      <point x="518" y="148"/>
      <point x="459" y="54"/>
      <point x="328" y="54" type="curve" smooth="yes"/>
      <point x="321" y="54" type="line" smooth="yes"/>
      <point x="260" y="54"/>
      <point x="214" y="74"/>
      <point x="183" y="118" type="curve"/>
      <point x="488" y="619" type="line"/>
      <point x="508" y="569"/>
      <point x="518" y="500"/>
    </contour>
    <contour>
      <point x="131" y="370" type="curve"/>
      <point x="131" y="410" type="line" smooth="yes"/>
      <point x="131" y="632"/>
      <point x="190" y="726"/>
      <point x="321" y="726" type="curve" smooth="yes"/>
      <point x="328" y="726" type="line" smooth="yes"/>
      <point x="385" y="726"/>
      <point x="429" y="708"/>
      <point x="460" y="668" type="curve"/>
      <point x="157" y="170" type="line"/>
      <point x="139" y="219"/>
      <point x="131" y="285"/>
    </contour>
  </outline>
</glyph>
