<?xml version="1.0" encoding="UTF-8"?>
<glyph name="k" format="1">
  <advance width="501"/>
  <unicode hex="006B"/>
  <outline>
    <contour>
      <point x="135" y="276" type="line"/>
      <point x="135" y="250" type="line"/>
      <point x="159" y="276" type="line"/>
      <point x="387" y="530" type="line"/>
      <point x="474" y="530" type="line"/>
      <point x="292" y="329" type="line"/>
      <point x="321" y="276" type="line"/>
      <point x="474" y="0" type="line"/>
      <point x="394" y="0" type="line"/>
      <point x="244" y="276" type="line"/>
      <point x="135" y="156" type="line"/>
      <point x="135" y="74" type="line" smooth="yes"/>
      <point x="135" y="11"/>
      <point x="135" y="0"/>
      <point x="135" y="0" type="curve"/>
      <point x="65" y="0" type="line"/>
      <point x="65" y="0"/>
      <point x="65" y="11"/>
      <point x="65" y="74" type="curve" smooth="yes"/>
      <point x="65" y="276" type="line"/>
      <point x="65" y="726" type="line"/>
      <point x="65" y="789"/>
      <point x="77" y="800"/>
      <point x="77" y="800" type="curve"/>
      <point x="147" y="800" type="line"/>
      <point x="147" y="800"/>
      <point x="135" y="789"/>
      <point x="135" y="726" type="curve"/>
    </contour>
  </outline>
  <lib>
  <dict>
  <key>com.typemytype.robofont.guides</key>
  <array>
    <dict>
      <key>angle</key>
      <real>0</real>
      <key>isGlobal</key>
      <false/>
      <key>magnetic</key>
      <integer>5</integer>
      <key>x</key>
      <real>0</real>
      <key>y</key>
      <real>74</real>
    </dict>
    <dict>
      <key>angle</key>
      <real>0</real>
      <key>isGlobal</key>
      <false/>
      <key>magnetic</key>
      <integer>5</integer>
      <key>x</key>
      <real>0</real>
      <key>y</key>
      <real>726</real>
    </dict>
  </array>
  </dict>
  </lib>
</glyph>
