<?xml version="1.0" encoding="UTF-8"?>
<glyph name="arrowup" format="1">
  <advance width="920"/>
  <unicode hex="2191"/>
  <outline>
    <contour>
      <point x="70" y="271" type="line"/>
      <point x="414" y="615" type="line"/>
      <point x="414" y="0" type="line"/>
      <point x="506" y="0" type="line"/>
      <point x="506" y="615" type="line"/>
      <point x="850" y="271" type="line"/>
      <point x="850" y="402" type="line"/>
      <point x="460" y="792" type="line"/>
      <point x="70" y="402" type="line"/>
    </contour>
  </outline>
  <lib>
    <dict>
      <key>com.schriftgestaltung.Glyphs.lastChange</key>
      <string>2016-06-18 09:29:41 +0000</string>
    </dict>
  </lib>
</glyph>
