<?xml version="1.0" encoding="UTF-8"?>
<glyph name="onesixteenth" format="1">
  <advance width="1100"/>
  <unicode hex="F215"/>
  <outline>
    <contour>
      <point x="164" y="0" type="line"/>
      <point x="740" y="780" type="line"/>
      <point x="636" y="780" type="line"/>
      <point x="60" y="0" type="line"/>
    </contour>
    <contour>
      <point x="1061" y="396" type="line"/>
      <point x="981" y="396"/>
      <point x="917" y="381"/>
      <point x="874" y="323" type="curve" smooth="yes"/>
      <point x="832" y="268"/>
      <point x="819" y="206"/>
      <point x="819" y="144" type="curve" smooth="yes"/>
      <point x="819" y="136" type="line" smooth="yes"/>
      <point x="819" y="51"/>
      <point x="865" y="-7"/>
      <point x="950" y="-7" type="curve" smooth="yes"/>
      <point x="1037" y="-7"/>
      <point x="1081" y="41"/>
      <point x="1081" y="118" type="curve" smooth="yes"/>
      <point x="1081" y="123" type="line" smooth="yes"/>
      <point x="1081" y="200"/>
      <point x="1038" y="246"/>
      <point x="972" y="246" type="curve" smooth="yes"/>
      <point x="949" y="246"/>
      <point x="929" y="239"/>
      <point x="914" y="229" type="curve"/>
      <point x="919" y="248"/>
      <point x="927" y="264"/>
      <point x="938" y="277" type="curve" smooth="yes"/>
      <point x="965" y="309"/>
      <point x="1004" y="322"/>
      <point x="1061" y="322" type="curve"/>
    </contour>
    <contour>
      <point x="286" y="390" type="line"/>
      <point x="286" y="463" type="line"/>
      <point x="202" y="463" type="line"/>
      <point x="202" y="780" type="line"/>
      <point x="139" y="780" type="line"/>
      <point x="17" y="698" type="line"/>
      <point x="59" y="637" type="line"/>
      <point x="118" y="677" type="line"/>
      <point x="118" y="463" type="line"/>
      <point x="33" y="463" type="line"/>
      <point x="33" y="390" type="line"/>
    </contour>
    <contour>
      <point x="786" y="0" type="line"/>
      <point x="786" y="73" type="line"/>
      <point x="702" y="73" type="line"/>
      <point x="702" y="390" type="line"/>
      <point x="639" y="390" type="line"/>
      <point x="517" y="308" type="line"/>
      <point x="559" y="247" type="line"/>
      <point x="618" y="287" type="line"/>
      <point x="618" y="73" type="line"/>
      <point x="533" y="73" type="line"/>
      <point x="533" y="0" type="line"/>
    </contour>
    <contour>
      <point x="951" y="173" type="curve" smooth="yes"/>
      <point x="954" y="173" type="line" smooth="yes"/>
      <point x="979" y="173"/>
      <point x="998" y="159"/>
      <point x="998" y="125" type="curve" smooth="yes"/>
      <point x="998" y="115" type="line" smooth="yes"/>
      <point x="998" y="84"/>
      <point x="977" y="66"/>
      <point x="952" y="66" type="curve" smooth="yes"/>
      <point x="949" y="66" type="line" smooth="yes"/>
      <point x="923" y="66"/>
      <point x="903" y="88"/>
      <point x="903" y="130" type="curve" smooth="yes"/>
      <point x="903" y="145" type="line"/>
      <point x="914" y="164"/>
      <point x="933" y="173"/>
    </contour>
  </outline>
  <lib>
    <dict>
      <key>com.schriftgestaltung.Glyphs.lastChange</key>
      <string>2016-06-18 09:29:41 +0000</string>
    </dict>
  </lib>
</glyph>
