<?xml version="1.0" encoding="UTF-8"?>
<glyph name="braceleft.cap" format="1">
  <advance width="379"/>
  <unicode hex="E495"/>
  <outline>
    <contour>
      <point x="343" y="780" type="line"/>
      <point x="316" y="780" type="line" smooth="yes"/>
      <point x="192" y="780"/>
      <point x="110" y="735"/>
      <point x="110" y="602" type="curve" smooth="yes"/>
      <point x="110" y="541" type="line" smooth="yes"/>
      <point x="110" y="482"/>
      <point x="86" y="459"/>
      <point x="35" y="459" type="curve"/>
      <point x="35" y="321" type="line"/>
      <point x="86" y="321"/>
      <point x="110" y="298"/>
      <point x="110" y="239" type="curve" smooth="yes"/>
      <point x="110" y="178" type="line" smooth="yes"/>
      <point x="110" y="45"/>
      <point x="192" y="0"/>
      <point x="316" y="0" type="curve" smooth="yes"/>
      <point x="343" y="0" type="line"/>
      <point x="343" y="138" type="line"/>
      <point x="292" y="138"/>
      <point x="267" y="162"/>
      <point x="267" y="223" type="curve" smooth="yes"/>
      <point x="267" y="274" type="line" smooth="yes"/>
      <point x="267" y="331"/>
      <point x="246" y="368"/>
      <point x="207" y="390" type="curve"/>
      <point x="246" y="412"/>
      <point x="267" y="449"/>
      <point x="267" y="506" type="curve" smooth="yes"/>
      <point x="267" y="566" type="line" smooth="yes"/>
      <point x="269" y="620"/>
      <point x="294" y="642"/>
      <point x="343" y="642" type="curve"/>
    </contour>
  </outline>
  <lib>
    <dict>
      <key>com.fontlab.hintData</key>
      <dict>
        <key>vhints</key>
        <array>
          <dict>
            <key>position</key>
            <integer>110</integer>
            <key>width</key>
            <integer>157</integer>
          </dict>
        </array>
      </dict>
    </dict>
  </lib>
</glyph>
