<?xml version="1.0" encoding="UTF-8"?>
<glyph name="hbar" format="1">
  <advance width="731"/>
  <unicode hex="0127"/>
  <outline>
    <contour>
      <point x="285" y="609" type="line"/>
      <point x="398" y="609" type="line"/>
      <point x="398" y="721" type="line"/>
      <point x="285" y="721" type="line"/>
      <point x="285" y="800" type="line"/>
      <point x="128" y="800" type="line"/>
      <point x="128" y="721" type="line"/>
      <point x="37" y="721" type="line"/>
      <point x="37" y="651.7" type="line"/>
      <point x="127" y="609.469" type="line"/>
      <point x="127" y="148" type="line"/>
      <point x="37" y="114" type="line"/>
      <point x="37" y="0" type="line"/>
      <point x="374" y="0" type="line"/>
      <point x="374" y="114" type="line"/>
      <point x="285" y="148" type="line"/>
      <point x="285" y="357" type="line" smooth="yes"/>
      <point x="287.058" y="360.165"/>
      <point x="289.54" y="363.605"/>
      <point x="292.461" y="367.154" type="curve" smooth="yes"/>
      <point x="307.708" y="385.356"/>
      <point x="336.222" y="407"/>
      <point x="378" y="407" type="curve" smooth="yes"/>
      <point x="432" y="407"/>
      <point x="448" y="371"/>
      <point x="448" y="333" type="curve" smooth="yes"/>
      <point x="448" y="0" type="line"/>
      <point x="449" y="0" type="line"/>
      <point x="696" y="0" type="line"/>
      <point x="696" y="114" type="line"/>
      <point x="605" y="150" type="line"/>
      <point x="605" y="359" type="line" smooth="yes"/>
      <point x="605" y="455"/>
      <point x="561" y="543"/>
      <point x="441" y="543" type="curve" smooth="yes"/>
      <point x="370" y="543"/>
      <point x="319" y="517"/>
      <point x="285" y="479" type="curve"/>
    </contour>
  </outline>
  <lib>
    <dict>
      <key>com.fontlab.hintData</key>
      <dict>
        <key>hhints</key>
        <array>
          <dict>
            <key>position</key>
            <integer>407</integer>
            <key>width</key>
            <integer>136</integer>
          </dict>
        </array>
      </dict>
    </dict>
  </lib>
</glyph>
