<?xml version="1.0" encoding="UTF-8"?>
<glyph name="Mdotaccent" format="1">
  <advance width="1012"/>
  <unicode hex="1E40"/>
  <outline>
    <contour>
      <point x="286.102" y="495.046" type="line"/>
      <point x="424" y="0" type="line"/>
      <point x="425" y="0" type="line"/>
      <point x="589" y="0" type="line"/>
      <point x="590" y="0" type="line"/>
      <point x="727.898" y="495.046" type="line"/>
      <point x="724" y="343" type="line"/>
      <point x="724" y="148" type="line"/>
      <point x="666" y="114" type="line"/>
      <point x="666" y="0" type="line"/>
      <point x="724" y="0" type="line"/>
      <point x="886" y="0" type="line"/>
      <point x="974" y="0" type="line"/>
      <point x="974" y="114" type="line"/>
      <point x="886" y="148" type="line"/>
      <point x="886" y="650" type="line"/>
      <point x="976" y="683.7" type="line"/>
      <point x="976" y="799.7" type="line"/>
      <point x="549.21" y="800" type="line"/>
      <point x="549.21" y="683.7" type="line"/>
      <point x="610.438" y="652.333" type="line"/>
      <point x="507" y="281" type="line"/>
      <point x="403.562" y="652.333" type="line"/>
      <point x="464.79" y="683.7" type="line"/>
      <point x="464.79" y="800" type="line"/>
      <point x="38" y="799.7" type="line"/>
      <point x="38" y="683.7" type="line"/>
      <point x="128" y="650" type="line"/>
      <point x="128" y="148" type="line"/>
      <point x="40" y="114" type="line"/>
      <point x="40" y="0" type="line"/>
      <point x="128" y="0" type="line"/>
      <point x="290" y="0" type="line"/>
      <point x="348" y="0" type="line"/>
      <point x="348" y="114" type="line"/>
      <point x="290" y="148" type="line"/>
      <point x="290" y="343" type="line"/>
    </contour>
    <contour>
      <point x="574" y="945" type="line"/>
      <point x="440" y="945" type="line"/>
      <point x="440" y="845" type="line"/>
      <point x="574" y="845" type="line"/>
    </contour>
  </outline>
</glyph>
