<?xml version="1.0" encoding="UTF-8"?>
<glyph name="ograve" format="1">
  <advance width="561"/>
  <unicode hex="00F2"/>
  <outline>
    <contour>
      <point x="281" y="-13" type="curve" smooth="yes"/>
      <point x="452" y="-13"/>
      <point x="529" y="94"/>
      <point x="529" y="247" type="curve" smooth="yes"/>
      <point x="529" y="283" type="line" smooth="yes"/>
      <point x="529" y="436"/>
      <point x="452" y="543"/>
      <point x="281" y="543" type="curve" smooth="yes"/>
      <point x="111" y="543"/>
      <point x="33" y="436"/>
      <point x="33" y="283" type="curve" smooth="yes"/>
      <point x="33" y="247" type="line" smooth="yes"/>
      <point x="33" y="94"/>
      <point x="111" y="-13"/>
    </contour>
    <contour>
      <point x="281" y="123" type="curve" smooth="yes"/>
      <point x="219" y="123"/>
      <point x="191" y="169"/>
      <point x="191" y="247" type="curve" smooth="yes"/>
      <point x="191" y="283" type="line" smooth="yes"/>
      <point x="191" y="361"/>
      <point x="219" y="407"/>
      <point x="281" y="407" type="curve" smooth="yes"/>
      <point x="344" y="407"/>
      <point x="371" y="361"/>
      <point x="371" y="283" type="curve" smooth="yes"/>
      <point x="371" y="247" type="line" smooth="yes"/>
      <point x="371" y="169"/>
      <point x="344" y="123"/>
    </contour>
    <contour>
      <point x="96" y="780" type="line"/>
      <point x="203" y="596" type="line"/>
      <point x="359" y="596" type="line"/>
      <point x="268" y="780" type="line"/>
    </contour>
  </outline>
  <lib>
    <dict>
      <key>com.fontlab.hintData</key>
      <dict>
        <key>hhints</key>
        <array>
          <dict>
            <key>position</key>
            <integer>-13</integer>
            <key>width</key>
            <integer>136</integer>
          </dict>
          <dict>
            <key>position</key>
            <integer>407</integer>
            <key>width</key>
            <integer>136</integer>
          </dict>
        </array>
        <key>vhints</key>
        <array>
          <dict>
            <key>position</key>
            <integer>33</integer>
            <key>width</key>
            <integer>158</integer>
          </dict>
          <dict>
            <key>position</key>
            <integer>371</integer>
            <key>width</key>
            <integer>158</integer>
          </dict>
        </array>
      </dict>
    </dict>
  </lib>
</glyph>
