<?xml version="1.0" encoding="UTF-8"?>
<glyph name="Scedilla" format="1">
  <advance width="636"/>
  <unicode hex="015E"/>
  <outline>
    <contour>
      <point x="214" y="-190" type="line"/>
      <point x="233" y="-202"/>
      <point x="272" y="-215"/>
      <point x="321" y="-215" type="curve" smooth="yes"/>
      <point x="400" y="-215"/>
      <point x="441" y="-184"/>
      <point x="441" y="-127" type="curve" smooth="yes"/>
      <point x="441" y="-71"/>
      <point x="397" y="-44"/>
      <point x="341" y="-40" type="curve"/>
      <point x="350.954" y="-12.1289" type="line"/>
      <point x="514.138" y="-2.70898"/>
      <point x="602" y="82.6895"/>
      <point x="602" y="224" type="curve" smooth="yes"/>
      <point x="602" y="234" type="line" smooth="yes"/>
      <point x="602" y="379"/>
      <point x="516" y="437"/>
      <point x="346" y="460" type="curve" smooth="yes"/>
      <point x="232" y="475"/>
      <point x="209" y="505"/>
      <point x="209" y="562" type="curve" smooth="yes"/>
      <point x="209" y="567" type="line" smooth="yes"/>
      <point x="209" y="617"/>
      <point x="247" y="653"/>
      <point x="312" y="653" type="curve" smooth="yes"/>
      <point x="321" y="653" type="line" smooth="yes"/>
      <point x="339.134" y="653"/>
      <point x="354.773" y="650.701"/>
      <point x="368.136" y="646.018" type="curve" smooth="yes"/>
      <point x="371.754" y="644.749"/>
      <point x="375.206" y="643.306"/>
      <point x="378.495" y="641.686" type="curve" smooth="yes"/>
      <point x="386.683" y="637.046"/>
      <point x="393.774" y="632.068"/>
      <point x="399.891" y="626.482" type="curve" smooth="yes"/>
      <point x="423.875" y="602.623"/>
      <point x="434" y="562.294"/>
      <point x="434" y="504" type="curve"/>
      <point x="596" y="504" type="line"/>
      <point x="596" y="511" type="line"/>
      <point x="596" y="521" type="line"/>
      <point x="596" y="525" type="line"/>
      <point x="596" y="801" type="line"/>
      <point x="501" y="801" type="line"/>
      <point x="487.215" y="758.955" type="line"/>
      <point x="444.875" y="781.857"/>
      <point x="389.517" y="793"/>
      <point x="320" y="793" type="curve" smooth="yes"/>
      <point x="142" y="793"/>
      <point x="45" y="702"/>
      <point x="45" y="561" type="curve" smooth="yes"/>
      <point x="45" y="550" type="line" smooth="yes"/>
      <point x="45" y="409"/>
      <point x="125" y="349"/>
      <point x="295" y="326" type="curve" smooth="yes"/>
      <point x="408" y="311"/>
      <point x="437" y="280"/>
      <point x="437" y="224" type="curve" smooth="yes"/>
      <point x="437" y="219" type="line" smooth="yes"/>
      <point x="437" y="167"/>
      <point x="400" y="127"/>
      <point x="325" y="127" type="curve" smooth="yes"/>
      <point x="316" y="127" type="line" smooth="yes"/>
      <point x="241" y="127"/>
      <point x="201" y="168"/>
      <point x="201" y="266" type="curve"/>
      <point x="39" y="266" type="line"/>
      <point x="39" y="259" type="line"/>
      <point x="39" y="257" type="line"/>
      <point x="39" y="249" type="line"/>
      <point x="39" y="-19.667" type="line"/>
      <point x="134" y="-19.667" type="line"/>
      <point x="151.422" y="22.2061" type="line"/>
      <point x="186.117" y="3.30371"/>
      <point x="228.661" y="-7.73145"/>
      <point x="278.799" y="-11.5117" type="curve"/>
      <point x="255" y="-72" type="line"/>
      <point x="270" y="-100" type="line"/>
      <point x="270" y="-100"/>
      <point x="290" y="-95"/>
      <point x="308" y="-95" type="curve" smooth="yes"/>
      <point x="340" y="-95"/>
      <point x="356" y="-103"/>
      <point x="356" y="-118" type="curve" smooth="yes"/>
      <point x="356" y="-132"/>
      <point x="344" y="-141"/>
      <point x="309" y="-141" type="curve" smooth="yes"/>
      <point x="283" y="-141"/>
      <point x="253" y="-134"/>
      <point x="237" y="-124" type="curve"/>
    </contour>
  </outline>
  <lib>
    <dict>
      <key>com.fontlab.hintData</key>
      <dict>
        <key>hhints</key>
        <array>
          <dict>
            <key>position</key>
            <integer>-215</integer>
            <key>width</key>
            <integer>74</integer>
          </dict>
          <dict>
            <key>position</key>
            <integer>653</integer>
            <key>width</key>
            <integer>140</integer>
          </dict>
        </array>
        <key>vhints</key>
        <array>
          <dict>
            <key>position</key>
            <integer>39</integer>
            <key>width</key>
            <integer>162</integer>
          </dict>
          <dict>
            <key>position</key>
            <integer>45</integer>
            <key>width</key>
            <integer>164</integer>
          </dict>
          <dict>
            <key>position</key>
            <integer>356</integer>
            <key>width</key>
            <integer>85</integer>
          </dict>
          <dict>
            <key>position</key>
            <integer>434</integer>
            <key>width</key>
            <integer>162</integer>
          </dict>
        </array>
      </dict>
    </dict>
  </lib>
</glyph>
