<?xml version="1.0" encoding="UTF-8"?>
<glyph name="Ugrave" format="1">
  <advance width="801"/>
  <unicode hex="00D9"/>
  <outline>
    <contour>
      <point x="399" y="-12.7002" type="curve" smooth="yes"/>
      <point x="611" y="-12.7002"/>
      <point x="680" y="77.2998"/>
      <point x="680" y="247.3" type="curve" smooth="yes"/>
      <point x="680" y="652" type="line"/>
      <point x="768" y="684" type="line"/>
      <point x="768" y="800" type="line"/>
      <point x="455.425" y="799.7" type="line"/>
      <point x="455.425" y="683.7" type="line"/>
      <point x="518" y="652" type="line"/>
      <point x="518" y="252.3" type="line" smooth="yes"/>
      <point x="518" y="169.3"/>
      <point x="491" y="127.3"/>
      <point x="399" y="127.3" type="curve" smooth="yes"/>
      <point x="307" y="127.3"/>
      <point x="281" y="169.3"/>
      <point x="281" y="252.3" type="curve" smooth="yes"/>
      <point x="281" y="651" type="line"/>
      <point x="347.48" y="683" type="line"/>
      <point x="347.48" y="800" type="line"/>
      <point x="32" y="800" type="line"/>
      <point x="32" y="684" type="line"/>
      <point x="119" y="651" type="line"/>
      <point x="119" y="247.3" type="line" smooth="yes"/>
      <point x="119" y="77.2998"/>
      <point x="187" y="-12.7002"/>
    </contour>
    <contour>
      <point x="257" y="950" type="line"/>
      <point x="321" y="840" type="line"/>
      <point x="477" y="840" type="line"/>
      <point x="422" y="950" type="line"/>
    </contour>
  </outline>
  <lib>
    <dict>
      <key>com.fontlab.hintData</key>
      <dict>
        <key>hhints</key>
        <array>
          <dict>
            <key>position</key>
            <integer>-13</integer>
            <key>width</key>
            <integer>140</integer>
          </dict>
        </array>
        <key>vhints</key>
        <array>
          <dict>
            <key>position</key>
            <integer>119</integer>
            <key>width</key>
            <integer>162</integer>
          </dict>
          <dict>
            <key>position</key>
            <integer>518</integer>
            <key>width</key>
            <integer>162</integer>
          </dict>
        </array>
      </dict>
    </dict>
  </lib>
</glyph>
