<?xml version="1.0" encoding="UTF-8"?>
<glyph name="uni215C" format="1">
  <advance width="844"/>
  <unicode hex="215C"/>
  <outline>
    <contour>
      <point x="201" y="0" type="line"/>
      <point x="777" y="780" type="line"/>
      <point x="643" y="780" type="line"/>
      <point x="67" y="0" type="line"/>
    </contour>
    <contour>
      <point x="672" y="-13" type="curve" smooth="yes"/>
      <point x="757" y="-13"/>
      <point x="810" y="34"/>
      <point x="810" y="102" type="curve" smooth="yes"/>
      <point x="810" y="113" type="line" smooth="yes"/>
      <point x="810" y="156"/>
      <point x="787" y="184"/>
      <point x="761" y="199" type="curve"/>
      <point x="785" y="214"/>
      <point x="806" y="241"/>
      <point x="806" y="284" type="curve" smooth="yes"/>
      <point x="806" y="294" type="line" smooth="yes"/>
      <point x="806" y="331"/>
      <point x="780" y="403"/>
      <point x="672" y="403" type="curve" smooth="yes"/>
      <point x="564" y="403"/>
      <point x="538" y="331"/>
      <point x="538" y="294" type="curve" smooth="yes"/>
      <point x="538" y="284" type="line" smooth="yes"/>
      <point x="538" y="241"/>
      <point x="559" y="214"/>
      <point x="583" y="199" type="curve"/>
      <point x="557" y="184"/>
      <point x="534" y="156"/>
      <point x="534" y="113" type="curve" smooth="yes"/>
      <point x="534" y="102" type="line" smooth="yes"/>
      <point x="534" y="34"/>
      <point x="587" y="-13"/>
    </contour>
    <contour>
      <point x="153" y="515" type="curve"/>
      <point x="33" y="515" type="line"/>
      <point x="33" y="507" type="line" smooth="yes"/>
      <point x="33" y="428"/>
      <point x="87" y="377"/>
      <point x="172" y="377" type="curve" smooth="yes"/>
      <point x="257" y="377"/>
      <point x="310" y="424"/>
      <point x="310" y="492" type="curve" smooth="yes"/>
      <point x="310" y="502" type="line" smooth="yes"/>
      <point x="310" y="547"/>
      <point x="285" y="574"/>
      <point x="258" y="589" type="curve"/>
      <point x="284" y="603"/>
      <point x="306" y="629"/>
      <point x="306" y="674" type="curve" smooth="yes"/>
      <point x="306" y="684" type="line" smooth="yes"/>
      <point x="306" y="721"/>
      <point x="280" y="793"/>
      <point x="171" y="793" type="curve" smooth="yes"/>
      <point x="61" y="793"/>
      <point x="35" y="719"/>
      <point x="35" y="659" type="curve" smooth="yes"/>
      <point x="35" y="650" type="line"/>
      <point x="155" y="650" type="line"/>
      <point x="155" y="675"/>
      <point x="159" y="689"/>
      <point x="169" y="689" type="curve" smooth="yes"/>
      <point x="172" y="689" type="line" smooth="yes"/>
      <point x="182" y="689"/>
      <point x="186" y="671"/>
      <point x="186" y="664" type="curve" smooth="yes"/>
      <point x="186" y="662" type="line" smooth="yes"/>
      <point x="186" y="646"/>
      <point x="182" y="637"/>
      <point x="171" y="637" type="curve" smooth="yes"/>
      <point x="122" y="637" type="line"/>
      <point x="122" y="541" type="line"/>
      <point x="172" y="541" type="line" smooth="yes"/>
      <point x="185" y="541"/>
      <point x="191" y="531"/>
      <point x="191" y="516" type="curve" smooth="yes"/>
      <point x="191" y="511" type="line" smooth="yes"/>
      <point x="191" y="491"/>
      <point x="181" y="481"/>
      <point x="174" y="481" type="curve" smooth="yes"/>
      <point x="171" y="481" type="line" smooth="yes"/>
      <point x="164" y="481"/>
      <point x="153" y="489"/>
    </contour>
    <contour>
      <point x="670" y="147" type="curve" smooth="yes"/>
      <point x="674" y="147" type="line" smooth="yes"/>
      <point x="687" y="147"/>
      <point x="691" y="136"/>
      <point x="691" y="120" type="curve" smooth="yes"/>
      <point x="691" y="116" type="line" smooth="yes"/>
      <point x="691" y="100"/>
      <point x="685" y="89"/>
      <point x="674" y="89" type="curve" smooth="yes"/>
      <point x="670" y="89" type="line" smooth="yes"/>
      <point x="659" y="89"/>
      <point x="653" y="100"/>
      <point x="653" y="116" type="curve" smooth="yes"/>
      <point x="653" y="120" type="line" smooth="yes"/>
      <point x="653" y="136"/>
      <point x="657" y="147"/>
    </contour>
    <contour>
      <point x="673" y="251" type="curve" smooth="yes"/>
      <point x="671" y="251" type="line" smooth="yes"/>
      <point x="662" y="251"/>
      <point x="658" y="258"/>
      <point x="658" y="274" type="curve" smooth="yes"/>
      <point x="658" y="278" type="line" smooth="yes"/>
      <point x="658" y="294"/>
      <point x="662" y="301"/>
      <point x="671" y="301" type="curve" smooth="yes"/>
      <point x="673" y="301" type="line" smooth="yes"/>
      <point x="682" y="301"/>
      <point x="686" y="294"/>
      <point x="686" y="278" type="curve" smooth="yes"/>
      <point x="686" y="274" type="line" smooth="yes"/>
      <point x="686" y="258"/>
      <point x="682" y="251"/>
    </contour>
  </outline>
  <lib>
    <dict>
      <key>com.fontlab.hintData</key>
      <dict>
        <key>vhints</key>
        <array>
          <dict>
            <key>position</key>
            <integer>35</integer>
            <key>width</key>
            <integer>120</integer>
          </dict>
          <dict>
            <key>position</key>
            <integer>191</integer>
            <key>width</key>
            <integer>119</integer>
          </dict>
          <dict>
            <key>position</key>
            <integer>534</integer>
            <key>width</key>
            <integer>119</integer>
          </dict>
          <dict>
            <key>position</key>
            <integer>691</integer>
            <key>width</key>
            <integer>119</integer>
          </dict>
        </array>
      </dict>
    </dict>
  </lib>
</glyph>
