<?xml version="1.0" encoding="UTF-8"?>
<glyph name="uni215E" format="1">
  <advance width="847"/>
  <unicode hex="215E"/>
  <outline>
    <contour>
      <point x="204" y="0" type="line"/>
      <point x="780" y="780" type="line"/>
      <point x="646" y="780" type="line"/>
      <point x="70" y="0" type="line"/>
    </contour>
    <contour>
      <point x="675" y="-13" type="curve" smooth="yes"/>
      <point x="760" y="-13"/>
      <point x="813" y="34"/>
      <point x="813" y="102" type="curve" smooth="yes"/>
      <point x="813" y="113" type="line" smooth="yes"/>
      <point x="813" y="156"/>
      <point x="790" y="184"/>
      <point x="764" y="199" type="curve"/>
      <point x="788" y="214"/>
      <point x="809" y="241"/>
      <point x="809" y="284" type="curve" smooth="yes"/>
      <point x="809" y="294" type="line" smooth="yes"/>
      <point x="809" y="331"/>
      <point x="783" y="403"/>
      <point x="675" y="403" type="curve" smooth="yes"/>
      <point x="567" y="403"/>
      <point x="541" y="331"/>
      <point x="541" y="294" type="curve" smooth="yes"/>
      <point x="541" y="284" type="line" smooth="yes"/>
      <point x="541" y="241"/>
      <point x="562" y="214"/>
      <point x="586" y="199" type="curve"/>
      <point x="560" y="184"/>
      <point x="537" y="156"/>
      <point x="537" y="113" type="curve" smooth="yes"/>
      <point x="537" y="102" type="line" smooth="yes"/>
      <point x="537" y="34"/>
      <point x="590" y="-13"/>
    </contour>
    <contour>
      <point x="33" y="640" type="line"/>
      <point x="137" y="640" type="line"/>
      <point x="137" y="676" type="line"/>
      <point x="185" y="676" type="line"/>
      <point x="61" y="390" type="line"/>
      <point x="189" y="390" type="line"/>
      <point x="317" y="706" type="line"/>
      <point x="317" y="780" type="line"/>
      <point x="33" y="780" type="line"/>
    </contour>
    <contour>
      <point x="673" y="147" type="curve" smooth="yes"/>
      <point x="677" y="147" type="line" smooth="yes"/>
      <point x="690" y="147"/>
      <point x="694" y="136"/>
      <point x="694" y="120" type="curve" smooth="yes"/>
      <point x="694" y="116" type="line" smooth="yes"/>
      <point x="694" y="100"/>
      <point x="688" y="89"/>
      <point x="677" y="89" type="curve" smooth="yes"/>
      <point x="673" y="89" type="line" smooth="yes"/>
      <point x="662" y="89"/>
      <point x="656" y="100"/>
      <point x="656" y="116" type="curve" smooth="yes"/>
      <point x="656" y="120" type="line" smooth="yes"/>
      <point x="656" y="136"/>
      <point x="660" y="147"/>
    </contour>
    <contour>
      <point x="676" y="251" type="curve" smooth="yes"/>
      <point x="674" y="251" type="line" smooth="yes"/>
      <point x="665" y="251"/>
      <point x="661" y="258"/>
      <point x="661" y="274" type="curve" smooth="yes"/>
      <point x="661" y="278" type="line" smooth="yes"/>
      <point x="661" y="294"/>
      <point x="665" y="301"/>
      <point x="674" y="301" type="curve" smooth="yes"/>
      <point x="676" y="301" type="line" smooth="yes"/>
      <point x="685" y="301"/>
      <point x="689" y="294"/>
      <point x="689" y="278" type="curve" smooth="yes"/>
      <point x="689" y="274" type="line" smooth="yes"/>
      <point x="689" y="258"/>
      <point x="685" y="251"/>
    </contour>
  </outline>
  <lib>
    <dict>
      <key>com.fontlab.hintData</key>
      <dict>
        <key>vhints</key>
        <array>
          <dict>
            <key>position</key>
            <integer>537</integer>
            <key>width</key>
            <integer>119</integer>
          </dict>
          <dict>
            <key>position</key>
            <integer>694</integer>
            <key>width</key>
            <integer>119</integer>
          </dict>
        </array>
      </dict>
    </dict>
  </lib>
</glyph>
