<?xml version="1.0" encoding="UTF-8"?>
<glyph name="whitesmallsquare" format="1">
  <advance width="620"/>
  <unicode hex="25AB"/>
  <outline>
    <contour>
      <point x="45" y="530" type="line"/>
      <point x="45" y="0" type="line"/>
      <point x="575" y="0" type="line"/>
      <point x="575" y="530" type="line"/>
    </contour>
    <contour>
      <point x="436" y="391" type="line"/>
      <point x="436" y="139" type="line"/>
      <point x="184" y="139" type="line"/>
      <point x="184" y="391" type="line"/>
    </contour>
  </outline>
</glyph>
