<?xml version="1.0" encoding="UTF-8"?>
<glyph name=".notdef" format="1">
  <advance width="780"/>
  <outline>
    <contour>
      <point x="0" y="0" type="line"/>
      <point x="780" y="0" type="line"/>
      <point x="780" y="780" type="line"/>
      <point x="0" y="780" type="line"/>
    </contour>
    <contour>
      <point x="390" y="345" type="line"/>
      <point x="669" y="66" type="line"/>
      <point x="111" y="66" type="line"/>
    </contour>
    <contour>
      <point x="111" y="714" type="line"/>
      <point x="669" y="714" type="line"/>
      <point x="390" y="435" type="line"/>
    </contour>
    <contour>
      <point x="345" y="390" type="line"/>
      <point x="70" y="115" type="line"/>
      <point x="70" y="665" type="line"/>
    </contour>
    <contour>
      <point x="435" y="390" type="line"/>
      <point x="710" y="665" type="line"/>
      <point x="710" y="115" type="line"/>
    </contour>
  </outline>
</glyph>
