<?xml version="1.0" encoding="UTF-8"?>
<glyph name="f" format="1">
  <advance width="365"/>
  <unicode hex="0066"/>
  <outline>
    <contour>
      <point x="236" y="498" type="line"/>
      <point x="318" y="498" type="line"/>
      <point x="318" y="440" type="line"/>
      <point x="236" y="440" type="line"/>
      <point x="236" y="231" type="line"/>
      <point x="96" y="231" type="line"/>
      <point x="96" y="440" type="line"/>
      <point x="39" y="440" type="line"/>
      <point x="39" y="498" type="line"/>
      <point x="96" y="498" type="line"/>
      <point x="96" y="554" type="line"/>
      <point x="96" y="691"/>
      <point x="159" y="738"/>
      <point x="251" y="738" type="curve" smooth="yes"/>
      <point x="286" y="738"/>
      <point x="313" y="727"/>
      <point x="324" y="720" type="curve"/>
      <point x="324" y="572" type="line"/>
      <point x="312" y="580"/>
      <point x="287" y="589"/>
      <point x="276" y="589" type="curve" smooth="yes"/>
      <point x="251" y="589"/>
      <point x="236" y="580"/>
      <point x="236" y="540" type="curve"/>
    </contour>
    <contour>
      <point x="250" y="540" type="line"/>
      <point x="250" y="567"/>
      <point x="261" y="572"/>
      <point x="276" y="572" type="curve" smooth="yes"/>
      <point x="285" y="572"/>
      <point x="319" y="557"/>
      <point x="339" y="545" type="curve"/>
      <point x="339" y="730" type="line"/>
      <point x="324" y="740"/>
      <point x="289" y="755"/>
      <point x="251" y="755" type="curve" smooth="yes"/>
      <point x="150" y="755"/>
      <point x="82" y="703"/>
      <point x="82" y="554" type="curve"/>
      <point x="82" y="515" type="line"/>
      <point x="26" y="515" type="line"/>
      <point x="26" y="330" type="line"/>
      <point x="82" y="330" type="line"/>
      <point x="82" y="28" type="line"/>
      <point x="250" y="28" type="line"/>
      <point x="250" y="330" type="line"/>
      <point x="331" y="330" type="line"/>
      <point x="331" y="515" type="line"/>
      <point x="250" y="515" type="line"/>
    </contour>
    <contour>
      <point x="263" y="529" type="line"/>
      <point x="339" y="529" type="line"/>
      <point x="314" y="543"/>
      <point x="282" y="558"/>
      <point x="276" y="558" type="curve" smooth="yes"/>
      <point x="269" y="558"/>
      <point x="263" y="555"/>
      <point x="263" y="540" type="curve"/>
    </contour>
    <contour>
      <point x="223" y="540" type="line"/>
      <point x="223" y="591"/>
      <point x="244" y="603"/>
      <point x="276" y="603" type="curve" smooth="yes"/>
      <point x="284" y="603"/>
      <point x="299" y="600"/>
      <point x="311" y="594" type="curve"/>
      <point x="311" y="711" type="line"/>
      <point x="299" y="718"/>
      <point x="278" y="724"/>
      <point x="251" y="724" type="curve" smooth="yes"/>
      <point x="166" y="724"/>
      <point x="109" y="681"/>
      <point x="109" y="554" type="curve"/>
      <point x="109" y="484" type="line"/>
      <point x="52" y="484" type="line"/>
      <point x="52" y="454" type="line"/>
      <point x="109" y="454" type="line"/>
      <point x="109" y="245" type="line"/>
      <point x="223" y="245" type="line"/>
      <point x="223" y="454" type="line"/>
      <point x="305" y="454" type="line"/>
      <point x="305" y="484" type="line"/>
      <point x="223" y="484" type="line"/>
    </contour>
    <contour>
      <point x="352" y="521" type="line"/>
      <point x="349" y="522"/>
      <point x="347" y="524"/>
      <point x="344" y="526" type="curve"/>
      <point x="344" y="316" type="line"/>
      <point x="263" y="316" type="line"/>
      <point x="263" y="14" type="line"/>
      <point x="69" y="14" type="line"/>
      <point x="69" y="316" type="line"/>
      <point x="13" y="316" type="line"/>
      <point x="13" y="529" type="line"/>
      <point x="69" y="529" type="line"/>
      <point x="69" y="554" type="line"/>
      <point x="69" y="713"/>
      <point x="142" y="769"/>
      <point x="251" y="769" type="curve" smooth="yes"/>
      <point x="293" y="769"/>
      <point x="333" y="750"/>
      <point x="352" y="738" type="curve"/>
    </contour>
    <contour>
      <point x="365" y="497" type="curve"/>
      <point x="365" y="746" type="line"/>
      <point x="342" y="761"/>
      <point x="295" y="783"/>
      <point x="251" y="783" type="curve" smooth="yes"/>
      <point x="135" y="783"/>
      <point x="56" y="723"/>
      <point x="56" y="554" type="curve"/>
      <point x="56" y="543" type="line"/>
      <point x="0" y="543" type="line"/>
      <point x="0" y="302" type="line"/>
      <point x="56" y="302" type="line"/>
      <point x="56" y="0" type="line"/>
      <point x="275" y="0" type="line"/>
      <point x="275" y="302" type="line"/>
      <point x="357" y="302" type="line"/>
      <point x="357" y="502" type="line"/>
      <point x="360" y="500"/>
      <point x="362" y="498"/>
    </contour>
    <contour>
      <point x="210" y="470" type="line"/>
      <point x="292" y="470" type="line"/>
      <point x="292" y="468" type="line"/>
      <point x="210" y="468" type="line"/>
      <point x="210" y="259" type="line"/>
      <point x="122" y="259" type="line"/>
      <point x="122" y="468" type="line"/>
      <point x="65" y="468" type="line"/>
      <point x="65" y="470" type="line"/>
      <point x="122" y="470" type="line"/>
      <point x="122" y="554" type="line"/>
      <point x="122" y="670"/>
      <point x="174" y="710"/>
      <point x="251" y="710" type="curve" smooth="yes"/>
      <point x="269" y="710"/>
      <point x="287" y="707"/>
      <point x="299" y="702" type="curve"/>
      <point x="299" y="613" type="line"/>
      <point x="289" y="615"/>
      <point x="281" y="617"/>
      <point x="276" y="617" type="curve" smooth="yes"/>
      <point x="235" y="617"/>
      <point x="210" y="602"/>
      <point x="210" y="540" type="curve"/>
    </contour>
    <contour>
      <point x="276" y="544" type="curve" smooth="yes"/>
      <point x="277" y="544"/>
      <point x="278" y="544"/>
      <point x="281" y="543" type="curve"/>
      <point x="275" y="543" type="line"/>
      <point x="275" y="543"/>
      <point x="275" y="544"/>
    </contour>
  </outline>
</glyph>
