<?xml version="1.0" encoding="UTF-8"?>
<glyph name="ydieresis" format="1">
  <advance width="595"/>
  <unicode hex="00FF"/>
  <outline>
    <component base="y" xOffset="35"/>
    <component base="dieresis" xOffset="107" yOffset="90"/>
  </outline>
</glyph>
