<?xml version="1.0" encoding="UTF-8"?>
<glyph name="B" format="1">
  <advance width="602"/>
  <unicode hex="0042"/>
  <outline>
    <contour>
      <point x="67" y="780" type="line"/>
      <point x="67" y="0" type="line"/>
      <point x="300" y="0" type="line" smooth="yes"/>
      <point x="429" y="0"/>
      <point x="548" y="50"/>
      <point x="548" y="213" type="curve" smooth="yes"/>
      <point x="548" y="233" type="line" smooth="yes"/>
      <point x="548" y="327"/>
      <point x="497" y="377"/>
      <point x="428" y="402" type="curve"/>
      <point x="487" y="428"/>
      <point x="528" y="475"/>
      <point x="528" y="557" type="curve" smooth="yes"/>
      <point x="528" y="577" type="line" smooth="yes"/>
      <point x="528" y="734"/>
      <point x="413" y="780"/>
      <point x="286" y="780" type="curve" smooth="yes"/>
    </contour>
    <contour>
      <point x="305" y="354" type="line" smooth="yes"/>
      <point x="377" y="354"/>
      <point x="442" y="320"/>
      <point x="442" y="229" type="curve" smooth="yes"/>
      <point x="442" y="217" type="line" smooth="yes"/>
      <point x="442" y="125"/>
      <point x="377" y="92"/>
      <point x="305" y="92" type="curve" smooth="yes"/>
      <point x="171" y="92" type="line"/>
      <point x="171" y="354" type="line"/>
    </contour>
    <contour>
      <point x="288" y="688" type="line" smooth="yes"/>
      <point x="359" y="688"/>
      <point x="422" y="660"/>
      <point x="422" y="574" type="curve" smooth="yes"/>
      <point x="422" y="560" type="line" smooth="yes"/>
      <point x="422" y="474"/>
      <point x="359" y="446"/>
      <point x="288" y="446" type="curve" smooth="yes"/>
      <point x="171" y="446" type="line"/>
      <point x="171" y="688" type="line"/>
    </contour>
  </outline>
  <lib>
    <dict>
      <key>com.schriftgestaltung.Glyphs.lastChange</key>
      <string>2016-06-19 14:54:31 +0000</string>
      <key>com.typemytype.robofont.layerData</key>
      <dict>
      </dict>
    </dict>
  </lib>
</glyph>
