<?xml version="1.0" encoding="UTF-8"?>
<glyph name="emspace" format="1">
  <advance width="1000"/>
  <unicode hex="2003"/>
  <outline>
  </outline>
  <lib>
    <dict>
      <key>com.typemytype.robofont.layerData</key>
      <dict>
      </dict>
    </dict>
  </lib>
</glyph>
