<?xml version="1.0" encoding="UTF-8"?>
<glyph name="T" format="1">
  <advance width="530"/>
  <unicode hex="0054"/>
  <outline>
    <contour>
      <point x="317" y="688" type="line"/>
      <point x="509" y="688" type="line"/>
      <point x="509" y="780" type="line"/>
      <point x="21" y="780" type="line"/>
      <point x="21" y="688" type="line"/>
      <point x="213" y="688" type="line"/>
      <point x="213" y="0" type="line"/>
      <point x="317" y="0" type="line"/>
    </contour>
  </outline>
  <lib>
    <dict>
      <key>com.schriftgestaltung.Glyphs.lastChange</key>
      <string>2016-06-19 14:54:31 +0000</string>
      <key>com.typemytype.robofont.layerData</key>
      <dict>
      </dict>
    </dict>
  </lib>
</glyph>
