<?xml version="1.0" encoding="UTF-8"?>
<glyph name="zero" format="1">
  <advance width="600"/>
  <unicode hex="0030"/>
  <outline>
    <contour>
      <point x="544" y="223" type="curve" smooth="yes"/>
      <point x="544" y="557" type="line" smooth="yes"/>
      <point x="544" y="692"/>
      <point x="470" y="792"/>
      <point x="300" y="792" type="curve" smooth="yes"/>
      <point x="130" y="792"/>
      <point x="56" y="692"/>
      <point x="56" y="557" type="curve" smooth="yes"/>
      <point x="56" y="223" type="line" smooth="yes"/>
      <point x="56" y="88"/>
      <point x="130" y="-12"/>
      <point x="300" y="-12" type="curve" smooth="yes"/>
      <point x="470" y="-12"/>
      <point x="544" y="88"/>
    </contour>
    <contour>
      <point x="441" y="551" type="curve" smooth="yes"/>
      <point x="441" y="229" type="line" smooth="yes"/>
      <point x="441" y="139"/>
      <point x="404" y="79"/>
      <point x="303" y="79" type="curve" smooth="yes"/>
      <point x="297" y="79" type="line" smooth="yes"/>
      <point x="196" y="79"/>
      <point x="159" y="139"/>
      <point x="159" y="229" type="curve" smooth="yes"/>
      <point x="159" y="551" type="line" smooth="yes"/>
      <point x="159" y="641"/>
      <point x="196" y="701"/>
      <point x="297" y="701" type="curve" smooth="yes"/>
      <point x="303" y="701" type="line" smooth="yes"/>
      <point x="404" y="701"/>
      <point x="441" y="641"/>
    </contour>
  </outline>
  <lib>
    <dict>
      <key>com.schriftgestaltung.Glyphs.lastChange</key>
      <string>2016-06-19 14:54:31 +0000</string>
      <key>com.typemytype.robofont.layerData</key>
      <dict>
      </dict>
    </dict>
  </lib>
</glyph>
