<?xml version="1.0" encoding="UTF-8"?>
<glyph name="seven" format="1">
  <advance width="600"/>
  <unicode hex="0037"/>
  <outline>
    <contour>
      <point x="43" y="500" type="line"/>
      <point x="160" y="500" type="line"/>
      <point x="160" y="664" type="line"/>
      <point x="160" y="680"/>
      <point x="164" y="688"/>
      <point x="180" y="688" type="curve"/>
      <point x="316" y="688" type="line"/>
      <point x="399" y="689.566" type="line"/>
      <point x="415" y="689.566"/>
      <point x="419.392" y="679.539"/>
      <point x="412" y="665" type="curve"/>
      <point x="136" y="0" type="line"/>
      <point x="277" y="0" type="line"/>
      <point x="553" y="679" type="line" smooth="yes"/>
      <point x="559.007" y="693.764"/>
      <point x="561" y="701"/>
      <point x="561" y="716" type="curve"/>
      <point x="561" y="780" type="line"/>
      <point x="43" y="780" type="line"/>
    </contour>
  </outline>
  <lib>
    <dict>
      <key>com.fontlab.hintData</key>
      <dict>
        <key>hhints</key>
        <array>
          <dict>
            <key>position</key>
            <integer>688</integer>
            <key>width</key>
            <integer>92</integer>
          </dict>
        </array>
      </dict>
    </dict>
  </lib>
</glyph>
