<?xml version="1.0" encoding="UTF-8"?>
<glyph name="zero" format="1">
  <advance width="597"/>
  <unicode hex="0030"/>
  <outline>
    <contour>
      <point x="550" y="223" type="curve" smooth="yes"/>
      <point x="550" y="557" type="line" smooth="yes"/>
      <point x="550" y="692"/>
      <point x="470" y="792"/>
      <point x="300" y="792" type="curve" smooth="yes"/>
      <point x="130" y="792"/>
      <point x="50" y="692"/>
      <point x="50" y="557" type="curve" smooth="yes"/>
      <point x="50" y="223" type="line" smooth="yes"/>
      <point x="50" y="88"/>
      <point x="130" y="-12"/>
      <point x="300" y="-12" type="curve" smooth="yes"/>
      <point x="470" y="-12"/>
      <point x="550" y="88"/>
    </contour>
    <contour>
      <point x="417" y="551" type="curve" smooth="yes"/>
      <point x="417" y="229" type="line" smooth="yes"/>
      <point x="417" y="139"/>
      <point x="404" y="79"/>
      <point x="303" y="79" type="curve" smooth="yes"/>
      <point x="297" y="79" type="line" smooth="yes"/>
      <point x="196" y="79"/>
      <point x="182" y="139"/>
      <point x="182" y="229" type="curve" smooth="yes"/>
      <point x="182" y="551" type="line" smooth="yes"/>
      <point x="182" y="641"/>
      <point x="196" y="701"/>
      <point x="297" y="701" type="curve" smooth="yes"/>
      <point x="303" y="701" type="line" smooth="yes"/>
      <point x="404" y="701"/>
      <point x="417" y="641"/>
    </contour>
  </outline>
  <lib>
    <dict>
      <key>com.fontlab.hintData</key>
      <dict>
        <key>hhints</key>
        <array>
          <dict>
            <key>position</key>
            <integer>-12</integer>
            <key>width</key>
            <integer>91</integer>
          </dict>
          <dict>
            <key>position</key>
            <integer>701</integer>
            <key>width</key>
            <integer>91</integer>
          </dict>
        </array>
        <key>vhints</key>
        <array>
          <dict>
            <key>position</key>
            <integer>50</integer>
            <key>width</key>
            <integer>132</integer>
          </dict>
          <dict>
            <key>position</key>
            <integer>417</integer>
            <key>width</key>
            <integer>133</integer>
          </dict>
        </array>
      </dict>
    </dict>
  </lib>
</glyph>
