<?xml version="1.0" encoding="UTF-8"?>
<glyph name="copyright" format="1">
  <advance width="806"/>
  <unicode hex="00A9"/>
  <outline>
    <contour>
      <point x="36" y="391" type="curve" smooth="yes"/>
      <point x="36" y="188"/>
      <point x="200" y="25"/>
      <point x="403" y="25" type="curve" smooth="yes"/>
      <point x="606" y="25"/>
      <point x="770" y="188"/>
      <point x="770" y="391" type="curve" smooth="yes"/>
      <point x="770" y="594"/>
      <point x="606" y="758"/>
      <point x="403" y="758" type="curve" smooth="yes"/>
      <point x="200" y="758"/>
      <point x="36" y="594"/>
    </contour>
    <contour>
      <point x="87" y="391" type="curve" smooth="yes"/>
      <point x="87" y="566"/>
      <point x="228" y="707"/>
      <point x="403" y="707" type="curve" smooth="yes"/>
      <point x="578" y="707"/>
      <point x="719" y="566"/>
      <point x="719" y="391" type="curve" smooth="yes"/>
      <point x="719" y="217"/>
      <point x="578" y="76"/>
      <point x="403" y="76" type="curve" smooth="yes"/>
      <point x="228" y="76"/>
      <point x="87" y="217"/>
    </contour>
    <contour>
      <point x="406" y="277" type="curve" smooth="yes"/>
      <point x="353" y="277"/>
      <point x="335" y="317"/>
      <point x="335" y="376" type="curve" smooth="yes"/>
      <point x="335" y="407" type="line" smooth="yes"/>
      <point x="335" y="465"/>
      <point x="353" y="506"/>
      <point x="406" y="506" type="curve" smooth="yes"/>
      <point x="448" y="506"/>
      <point x="469" y="481"/>
      <point x="469" y="440" type="curve"/>
      <point x="590" y="440" type="line"/>
      <point x="590" y="459" type="line" smooth="yes"/>
      <point x="590" y="551"/>
      <point x="529" y="618"/>
      <point x="403" y="618" type="curve" smooth="yes"/>
      <point x="264" y="618"/>
      <point x="206" y="527"/>
      <point x="206" y="407" type="curve" smooth="yes"/>
      <point x="206" y="376" type="line" smooth="yes"/>
      <point x="206" y="256"/>
      <point x="264" y="165"/>
      <point x="403" y="165" type="curve" smooth="yes"/>
      <point x="529" y="165"/>
      <point x="590" y="230"/>
      <point x="590" y="316" type="curve" smooth="yes"/>
      <point x="590" y="334" type="line"/>
      <point x="469" y="334" type="line"/>
      <point x="469" y="302"/>
      <point x="449" y="277"/>
    </contour>
    <contour>
      <point x="406" y="295" type="curve" smooth="yes"/>
      <point x="437" y="295"/>
      <point x="451" y="320"/>
      <point x="451" y="352" type="curve"/>
      <point x="609" y="352" type="line"/>
      <point x="609" y="316" type="line"/>
      <point x="609" y="220"/>
      <point x="541" y="146"/>
      <point x="403" y="146" type="curve" smooth="yes"/>
      <point x="251" y="146"/>
      <point x="188" y="246"/>
      <point x="188" y="376" type="curve"/>
      <point x="188" y="407" type="line"/>
      <point x="188" y="537"/>
      <point x="251" y="636"/>
      <point x="403" y="636" type="curve" smooth="yes"/>
      <point x="541" y="636"/>
      <point x="609" y="562"/>
      <point x="609" y="459" type="curve"/>
      <point x="609" y="422" type="line"/>
      <point x="451" y="422" type="line"/>
      <point x="451" y="463"/>
      <point x="437" y="488"/>
      <point x="406" y="488" type="curve" smooth="yes"/>
      <point x="367" y="488"/>
      <point x="353" y="454"/>
      <point x="353" y="407" type="curve"/>
      <point x="353" y="376" type="line"/>
      <point x="353" y="328"/>
      <point x="367" y="295"/>
    </contour>
    <contour>
      <point x="105" y="391" type="curve" smooth="yes"/>
      <point x="105" y="227"/>
      <point x="238" y="94"/>
      <point x="403" y="94" type="curve" smooth="yes"/>
      <point x="568" y="94"/>
      <point x="700" y="227"/>
      <point x="700" y="391" type="curve" smooth="yes"/>
      <point x="700" y="556"/>
      <point x="568" y="689"/>
      <point x="403" y="689" type="curve" smooth="yes"/>
      <point x="238" y="689"/>
      <point x="105" y="556"/>
    </contour>
    <contour>
      <point x="18" y="391" type="curve" smooth="yes"/>
      <point x="18" y="604"/>
      <point x="190" y="776"/>
      <point x="403" y="776" type="curve" smooth="yes"/>
      <point x="616" y="776"/>
      <point x="788" y="604"/>
      <point x="788" y="391" type="curve" smooth="yes"/>
      <point x="788" y="178"/>
      <point x="616" y="6"/>
      <point x="403" y="6" type="curve" smooth="yes"/>
      <point x="190" y="6"/>
      <point x="18" y="178"/>
    </contour>
    <contour>
      <point x="0" y="391" type="curve" smooth="yes"/>
      <point x="0" y="168"/>
      <point x="180" y="-12"/>
      <point x="403" y="-12" type="curve" smooth="yes"/>
      <point x="626" y="-12"/>
      <point x="806" y="168"/>
      <point x="806" y="391" type="curve" smooth="yes"/>
      <point x="806" y="614"/>
      <point x="626" y="794"/>
      <point x="403" y="794" type="curve" smooth="yes"/>
      <point x="180" y="794"/>
      <point x="0" y="614"/>
    </contour>
    <contour>
      <point x="124" y="391" type="curve" smooth="yes"/>
      <point x="124" y="546"/>
      <point x="248" y="670"/>
      <point x="403" y="670" type="curve" smooth="yes"/>
      <point x="558" y="670"/>
      <point x="682" y="546"/>
      <point x="682" y="391" type="curve" smooth="yes"/>
      <point x="682" y="237"/>
      <point x="558" y="112"/>
      <point x="403" y="112" type="curve" smooth="yes"/>
      <point x="248" y="112"/>
      <point x="124" y="237"/>
    </contour>
    <contour>
      <point x="406" y="313" type="curve" smooth="yes"/>
      <point x="380" y="313"/>
      <point x="371" y="338"/>
      <point x="371" y="376" type="curve"/>
      <point x="371" y="407" type="line"/>
      <point x="371" y="444"/>
      <point x="380" y="469"/>
      <point x="406" y="469" type="curve" smooth="yes"/>
      <point x="424" y="469"/>
      <point x="433" y="445"/>
      <point x="433" y="404" type="curve"/>
      <point x="627" y="404" type="line"/>
      <point x="627" y="459" type="line"/>
      <point x="627" y="572"/>
      <point x="554" y="654"/>
      <point x="403" y="654" type="curve" smooth="yes"/>
      <point x="238" y="654"/>
      <point x="170" y="548"/>
      <point x="170" y="407" type="curve"/>
      <point x="170" y="376" type="line"/>
      <point x="170" y="235"/>
      <point x="238" y="128"/>
      <point x="403" y="128" type="curve" smooth="yes"/>
      <point x="554" y="128"/>
      <point x="627" y="209"/>
      <point x="627" y="316" type="curve"/>
      <point x="627" y="370" type="line"/>
      <point x="433" y="370" type="line"/>
      <point x="433" y="338"/>
      <point x="425" y="313"/>
    </contour>
  </outline>
</glyph>
