<?xml version="1.0" encoding="UTF-8"?>
<glyph name="daggerdbl" format="1">
  <advance width="364"/>
  <unicode hex="2021"/>
  <outline>
    <contour>
      <point x="146" y="218" type="line"/>
      <point x="151" y="102" type="line"/>
      <point x="215" y="102" type="line"/>
      <point x="219" y="218" type="line"/>
      <point x="215" y="334" type="line"/>
      <point x="151" y="334" type="line"/>
    </contour>
    <contour>
      <point x="146" y="757" type="line"/>
      <point x="151" y="636" type="line"/>
      <point x="215" y="636" type="line"/>
      <point x="219" y="757" type="line"/>
    </contour>
    <contour>
      <point x="146" y="486" type="line"/>
      <point x="151" y="425" type="line"/>
      <point x="215" y="425" type="line"/>
      <point x="219" y="486" type="line"/>
      <point x="215" y="546" type="line"/>
      <point x="151" y="546" type="line"/>
    </contour>
    <contour>
      <point x="33" y="340" type="line"/>
      <point x="142" y="344" type="line"/>
      <point x="142" y="415" type="line"/>
      <point x="33" y="420" type="line"/>
    </contour>
    <contour>
      <point x="332" y="420" type="line"/>
      <point x="224" y="415" type="line"/>
      <point x="224" y="344" type="line"/>
      <point x="332" y="340" type="line"/>
    </contour>
    <contour>
      <point x="33" y="551" type="line"/>
      <point x="142" y="556" type="line"/>
      <point x="142" y="626" type="line"/>
      <point x="33" y="631" type="line"/>
    </contour>
    <contour>
      <point x="332" y="631" type="line"/>
      <point x="224" y="626" type="line"/>
      <point x="224" y="556" type="line"/>
      <point x="332" y="551" type="line"/>
    </contour>
    <contour>
      <point x="158" y="564" type="line"/>
      <point x="208" y="564" type="line"/>
      <point x="208" y="618" type="line"/>
      <point x="158" y="618" type="line"/>
    </contour>
    <contour>
      <point x="158" y="352" type="line"/>
      <point x="208" y="352" type="line"/>
      <point x="208" y="407" type="line"/>
      <point x="158" y="407" type="line"/>
    </contour>
    <contour>
      <point x="348" y="322" type="line"/>
      <point x="233" y="325" type="line"/>
      <point x="236" y="218" type="line"/>
      <point x="232" y="84" type="line"/>
      <point x="134" y="84" type="line"/>
      <point x="130" y="218" type="line"/>
      <point x="133" y="325" type="line"/>
      <point x="17" y="322" type="line"/>
      <point x="17" y="438" type="line"/>
      <point x="133" y="434" type="line"/>
      <point x="130" y="486" type="line"/>
      <point x="133" y="537" type="line"/>
      <point x="17" y="533" type="line"/>
      <point x="17" y="649" type="line"/>
      <point x="133" y="645" type="line"/>
      <point x="130" y="775" type="line"/>
      <point x="236" y="775" type="line"/>
      <point x="233" y="645" type="line"/>
      <point x="348" y="649" type="line"/>
      <point x="348" y="533" type="line"/>
      <point x="233" y="537" type="line"/>
      <point x="236" y="486" type="line"/>
      <point x="233" y="434" type="line"/>
      <point x="348" y="438" type="line"/>
    </contour>
    <contour>
      <point x="364" y="457" type="line"/>
      <point x="250" y="452" type="line"/>
      <point x="252" y="486" type="line"/>
      <point x="250" y="518" type="line"/>
      <point x="364" y="514" type="line"/>
      <point x="364" y="668" type="line"/>
      <point x="249" y="663" type="line"/>
      <point x="253" y="793" type="line"/>
      <point x="113" y="793" type="line"/>
      <point x="116" y="663" type="line"/>
      <point x="0" y="668" type="line"/>
      <point x="0" y="514" type="line"/>
      <point x="115" y="518" type="line"/>
      <point x="114" y="486" type="line"/>
      <point x="115" y="452" type="line"/>
      <point x="0" y="457" type="line"/>
      <point x="0" y="303" type="line"/>
      <point x="116" y="306" type="line"/>
      <point x="114" y="218" type="line"/>
      <point x="119" y="66" type="line"/>
      <point x="247" y="66" type="line"/>
      <point x="252" y="218" type="line"/>
      <point x="249" y="306" type="line"/>
      <point x="364" y="303" type="line"/>
    </contour>
    <contour>
      <point x="174" y="389" type="line"/>
      <point x="192" y="389" type="line"/>
      <point x="192" y="370" type="line"/>
      <point x="174" y="370" type="line"/>
    </contour>
    <contour>
      <point x="174" y="600" type="line"/>
      <point x="192" y="600" type="line"/>
      <point x="192" y="582" type="line"/>
      <point x="174" y="582" type="line"/>
    </contour>
  </outline>
</glyph>
