<?xml version="1.0" encoding="UTF-8"?>
<glyph name="Ugrave" format="1">
  <advance width="561"/>
  <unicode hex="00D9"/>
  <outline>
    <component base="U"/>
    <component base="grave" xOffset="49" yOffset="300"/>
  </outline>
</glyph>
