<?xml version="1.0" encoding="UTF-8"?>
<glyph name="z" format="1">
  <advance width="451"/>
  <unicode hex="007A"/>
  <outline>
    <contour>
      <point x="199" y="350" type="line"/>
      <point x="150" y="349" type="line"/>
      <point x="49" y="349" type="line"/>
      <point x="49" y="488" type="line"/>
      <point x="402" y="488" type="line"/>
      <point x="402" y="382" type="line"/>
      <point x="245" y="180" type="line"/>
      <point x="294" y="181" type="line"/>
      <point x="409" y="181" type="line"/>
      <point x="409" y="150" type="line"/>
      <point x="41" y="150" type="line"/>
      <point x="41" y="149" type="line"/>
    </contour>
    <contour>
      <point x="26" y="154" type="line"/>
      <point x="26" y="27" type="line"/>
      <point x="424" y="27" type="line"/>
      <point x="424" y="197" type="line"/>
      <point x="294" y="197" type="line"/>
      <point x="288" y="197"/>
      <point x="281" y="197"/>
      <point x="276" y="197" type="curve"/>
      <point x="417" y="376" type="line"/>
      <point x="417" y="503" type="line"/>
      <point x="34" y="503" type="line"/>
      <point x="34" y="333" type="line"/>
      <point x="150" y="333" type="line"/>
      <point x="155" y="333"/>
      <point x="160" y="333"/>
      <point x="167" y="333" type="curve"/>
    </contour>
    <contour>
      <point x="68" y="163" type="line"/>
      <point x="396" y="163" type="line"/>
      <point x="396" y="168" type="line"/>
      <point x="294" y="168" type="line"/>
      <point x="218" y="166" type="line"/>
      <point x="389" y="385" type="line"/>
      <point x="389" y="474" type="line"/>
      <point x="62" y="474" type="line"/>
      <point x="62" y="362" type="line"/>
      <point x="150" y="362" type="line"/>
      <point x="226" y="364" type="line"/>
    </contour>
    <contour>
      <point x="140" y="320" type="line"/>
      <point x="21" y="320" type="line"/>
      <point x="21" y="517" type="line"/>
      <point x="430" y="517" type="line"/>
      <point x="430" y="372" type="line"/>
      <point x="303" y="210" type="line"/>
      <point x="437" y="210" type="line"/>
      <point x="437" y="13" type="line"/>
      <point x="13" y="13" type="line"/>
      <point x="13" y="158" type="line"/>
    </contour>
    <contour>
      <point x="0" y="163" type="line"/>
      <point x="0" y="0" type="line"/>
      <point x="451" y="0" type="line"/>
      <point x="451" y="224" type="line"/>
      <point x="331" y="224" type="line"/>
      <point x="444" y="367" type="line"/>
      <point x="444" y="530" type="line"/>
      <point x="8" y="530" type="line"/>
      <point x="8" y="306" type="line"/>
      <point x="113" y="306" type="line"/>
    </contour>
    <contour>
      <point x="254" y="377" type="line"/>
      <point x="150" y="375" type="line"/>
      <point x="76" y="375" type="line"/>
      <point x="76" y="461" type="line"/>
      <point x="376" y="461" type="line"/>
      <point x="376" y="392" type="line"/>
      <point x="209" y="177" type="line"/>
      <point x="96" y="177" type="line"/>
    </contour>
    <contour>
      <point x="233" y="600" type="move" name="top"/>
    </contour>
  </outline>
</glyph>
