<?xml version="1.0" encoding="UTF-8"?>
<glyph name="figuredash.cap" format="1">
  <advance width="600"/>
  <outline>
    <contour>
      <point x="40" y="345" type="line"/>
      <point x="560" y="345" type="line"/>
      <point x="560" y="435" type="line"/>
      <point x="40" y="435" type="line"/>
    </contour>
  </outline>
  <lib>
    <dict>
      <key>com.schriftgestaltung.Glyphs.lastChange</key>
      <string>2016-06-18 09:29:41 +0000</string>
    </dict>
  </lib>
</glyph>
