<?xml version="1.0" encoding="UTF-8"?>
<glyph name="racute" format="1">
  <advance width="350"/>
  <unicode hex="0155"/>
  <outline>
    <contour>
      <point x="297" y="542" type="curve" smooth="yes"/>
      <point x="229" y="542"/>
      <point x="181" y="507"/>
      <point x="151" y="462" type="curve"/>
      <point x="141" y="530" type="line"/>
      <point x="55" y="530" type="line"/>
      <point x="62" y="380" type="line"/>
      <point x="62" y="0" type="line"/>
      <point x="162" y="0" type="line"/>
      <point x="162" y="377" type="line"/>
      <point x="181" y="406"/>
      <point x="219" y="445"/>
      <point x="294" y="445" type="curve" smooth="yes"/>
      <point x="312" y="445" type="line"/>
      <point x="312" y="541" type="line"/>
      <point x="310" y="541"/>
      <point x="303" y="542"/>
    </contour>
    <contour>
      <point x="227" y="780" type="line"/>
      <point x="136" y="607" type="line"/>
      <point x="238" y="607" type="line"/>
      <point x="337" y="780" type="line"/>
    </contour>
  </outline>
  <lib>
    <dict>
      <key>com.schriftgestaltung.Glyphs.lastChange</key>
      <string>2016-06-18 09:29:41 +0000</string>
    </dict>
  </lib>
</glyph>
