<?xml version="1.0" encoding="UTF-8"?>
<glyph name="uni2075" format="1">
  <advance width="300"/>
  <unicode hex="2075"/>
  <outline>
    <contour>
      <point x="18" y="515" type="line"/>
      <point x="18" y="508" type="line" smooth="yes"/>
      <point x="18" y="428"/>
      <point x="62" y="383"/>
      <point x="150" y="383" type="curve" smooth="yes"/>
      <point x="236" y="383"/>
      <point x="281" y="432"/>
      <point x="281" y="509" type="curve" smooth="yes"/>
      <point x="281" y="518" type="line" smooth="yes"/>
      <point x="281" y="594"/>
      <point x="236" y="644"/>
      <point x="154" y="644" type="curve" smooth="yes"/>
      <point x="134" y="644"/>
      <point x="115" y="640"/>
      <point x="98" y="633" type="curve"/>
      <point x="101" y="706" type="line"/>
      <point x="276" y="706" type="line"/>
      <point x="276" y="780" type="line"/>
      <point x="31" y="780" type="line"/>
      <point x="21" y="566" type="line"/>
      <point x="93" y="542" type="line"/>
      <point x="104" y="561"/>
      <point x="126" y="570"/>
      <point x="145" y="570" type="curve" smooth="yes"/>
      <point x="148" y="570" type="line" smooth="yes"/>
      <point x="176" y="570"/>
      <point x="198" y="555"/>
      <point x="198" y="516" type="curve" smooth="yes"/>
      <point x="198" y="511" type="line" smooth="yes"/>
      <point x="198" y="471"/>
      <point x="176" y="456"/>
      <point x="152" y="456" type="curve" smooth="yes"/>
      <point x="147" y="456" type="line" smooth="yes"/>
      <point x="122" y="456"/>
      <point x="102" y="470"/>
      <point x="102" y="515" type="curve"/>
    </contour>
  </outline>
  <lib>
    <dict>
      <key>com.schriftgestaltung.Glyphs.lastChange</key>
      <string>2016-06-18 09:29:41 +0000</string>
    </dict>
  </lib>
</glyph>
