<?xml version="1.0" encoding="UTF-8"?>
<glyph name="AE" format="1">
  <advance width="904"/>
  <unicode hex="00C6"/>
  <outline>
    <contour>
      <point x="300" y="780" type="line"/>
      <point x="28" y="0" type="line"/>
      <point x="202" y="0" type="line"/>
      <point x="256" y="170" type="line"/>
      <point x="438" y="170" type="line"/>
      <point x="457" y="0" type="line"/>
      <point x="865" y="0" type="line"/>
      <point x="865" y="140" type="line"/>
      <point x="610" y="140" type="line"/>
      <point x="584" y="328" type="line"/>
      <point x="815" y="328" type="line"/>
      <point x="815" y="468" type="line"/>
      <point x="564" y="468" type="line"/>
      <point x="541" y="640" type="line"/>
      <point x="865" y="640" type="line"/>
      <point x="865" y="780" type="line"/>
    </contour>
    <contour>
      <point x="391" y="594" type="line"/>
      <point x="422" y="310" type="line"/>
      <point x="300" y="310" type="line"/>
    </contour>
  </outline>
</glyph>
