<?xml version="1.0" encoding="UTF-8"?>
<glyph name="altcedilla" format="1">
  <advance width="324"/>
  <unicode hex="E416"/>
  <outline>
    <contour>
      <point x="189" y="-118" type="curve" smooth="yes"/>
      <point x="189" y="-132"/>
      <point x="177" y="-141"/>
      <point x="142" y="-141" type="curve" smooth="yes"/>
      <point x="116" y="-141"/>
      <point x="86" y="-134"/>
      <point x="70" y="-124" type="curve"/>
      <point x="47" y="-190" type="line"/>
      <point x="66" y="-202"/>
      <point x="105" y="-215"/>
      <point x="154" y="-215" type="curve" smooth="yes"/>
      <point x="233" y="-215"/>
      <point x="274" y="-184"/>
      <point x="274" y="-127" type="curve" smooth="yes"/>
      <point x="274" y="-67"/>
      <point x="224" y="-40"/>
      <point x="161" y="-40" type="curve" smooth="yes"/>
      <point x="130" y="-40"/>
      <point x="107" y="-45"/>
      <point x="93" y="-50" type="curve"/>
      <point x="93" y="-102" type="line"/>
      <point x="99" y="-99"/>
      <point x="122" y="-95"/>
      <point x="142" y="-95" type="curve" smooth="yes"/>
      <point x="174" y="-95"/>
      <point x="189" y="-103"/>
    </contour>
  </outline>
  <lib>
    <dict>
      <key>com.fontlab.hintData</key>
      <dict>
        <key>hhints</key>
        <array>
          <dict>
            <key>position</key>
            <integer>-215</integer>
            <key>width</key>
            <integer>74</integer>
          </dict>
          <dict>
            <key>position</key>
            <integer>-95</integer>
            <key>width</key>
            <integer>55</integer>
          </dict>
        </array>
        <key>vhints</key>
        <array>
          <dict>
            <key>position</key>
            <integer>189</integer>
            <key>width</key>
            <integer>85</integer>
          </dict>
        </array>
      </dict>
    </dict>
  </lib>
</glyph>
