<?xml version="1.0" encoding="UTF-8"?>
<glyph name="C" format="1">
  <advance width="645"/>
  <unicode hex="0043"/>
  <outline>
    <contour>
      <point x="197" y="370" type="curve" smooth="yes"/>
      <point x="197" y="410" type="line" smooth="yes"/>
      <point x="197" y="566"/>
      <point x="222" y="653"/>
      <point x="326" y="653" type="curve" smooth="yes"/>
      <point x="335" y="653" type="line" smooth="yes"/>
      <point x="346.265" y="653"/>
      <point x="356.439" y="651.911"/>
      <point x="365.617" y="649.773" type="curve"/>
      <point x="365.079" y="649.78"/>
      <point x="364.54" y="649.802"/>
      <point x="364" y="649.837" type="curve"/>
      <point x="425.382" y="635.188"/>
      <point x="443" y="570.647"/>
      <point x="443" y="477" type="curve"/>
      <point x="605" y="477" type="line"/>
      <point x="605" y="484" type="line"/>
      <point x="605" y="520" type="line"/>
      <point x="605" y="800" type="line"/>
      <point x="510" y="800" type="line"/>
      <point x="496.14" y="757.726" type="line"/>
      <point x="452.44" y="781.937"/>
      <point x="395.674" y="793"/>
      <point x="326" y="793" type="curve" smooth="yes"/>
      <point x="123" y="793"/>
      <point x="33" y="680"/>
      <point x="33" y="410" type="curve" smooth="yes"/>
      <point x="33" y="370" type="line" smooth="yes"/>
      <point x="33" y="100"/>
      <point x="123" y="-13"/>
      <point x="326" y="-13" type="curve" smooth="yes"/>
      <point x="511" y="-13"/>
      <point x="605" y="65"/>
      <point x="605" y="257" type="curve" smooth="yes"/>
      <point x="605" y="266" type="line"/>
      <point x="443" y="266" type="line"/>
      <point x="443" y="182"/>
      <point x="414" y="127"/>
      <point x="335" y="127" type="curve" smooth="yes"/>
      <point x="326" y="127" type="line" smooth="yes"/>
      <point x="222" y="127"/>
      <point x="197" y="214"/>
    </contour>
  </outline>
  <lib>
    <dict>
      <key>com.fontlab.hintData</key>
      <dict>
        <key>hhints</key>
        <array>
          <dict>
            <key>position</key>
            <integer>-13</integer>
            <key>width</key>
            <integer>140</integer>
          </dict>
          <dict>
            <key>position</key>
            <integer>653</integer>
            <key>width</key>
            <integer>140</integer>
          </dict>
        </array>
        <key>vhints</key>
        <array>
          <dict>
            <key>position</key>
            <integer>33</integer>
            <key>width</key>
            <integer>164</integer>
          </dict>
          <dict>
            <key>position</key>
            <integer>443</integer>
            <key>width</key>
            <integer>162</integer>
          </dict>
        </array>
      </dict>
    </dict>
  </lib>
</glyph>
