<?xml version="1.0" encoding="UTF-8"?>
<glyph name="Igrave" format="1">
  <advance width="414"/>
  <unicode hex="00CC"/>
  <outline>
    <contour>
      <point x="377" y="800" type="line"/>
      <point x="40" y="799.7" type="line"/>
      <point x="40" y="684" type="line"/>
      <point x="127" y="652" type="line"/>
      <point x="127" y="150" type="line"/>
      <point x="39" y="114" type="line"/>
      <point x="39" y="0" type="line"/>
      <point x="376" y="0" type="line"/>
      <point x="376" y="114" type="line"/>
      <point x="289" y="150" type="line"/>
      <point x="289" y="652" type="line"/>
      <point x="377" y="684" type="line"/>
    </contour>
    <contour>
      <point x="66" y="950" type="line"/>
      <point x="130" y="840" type="line"/>
      <point x="286" y="840" type="line"/>
      <point x="231" y="950" type="line"/>
    </contour>
  </outline>
</glyph>
