<?xml version="1.0" encoding="UTF-8"?>
<glyph name="logicalnot" format="1">
  <advance width="600"/>
  <unicode hex="00AC"/>
  <outline>
    <contour>
      <point x="39" y="435" type="line"/>
      <point x="414" y="435" type="line"/>
      <point x="414" y="194" type="line"/>
      <point x="555" y="194" type="line"/>
      <point x="555" y="576" type="line"/>
      <point x="39" y="576" type="line"/>
    </contour>
  </outline>
</glyph>
