<?xml version="1.0" encoding="UTF-8"?>
<glyph name="Ntilde" format="1">
  <advance width="820"/>
  <unicode hex="00D1"/>
  <outline>
    <contour>
      <point x="788" y="800" type="line"/>
      <point x="452" y="799.7" type="line"/>
      <point x="452" y="683.7" type="line"/>
      <point x="545" y="654" type="line"/>
      <point x="545" y="453" type="line"/>
      <point x="550" y="296" type="line"/>
      <point x="367.973" y="647" type="line"/>
      <point x="388" y="683.7" type="line"/>
      <point x="388" y="800" type="line"/>
      <point x="38" y="799.7" type="line"/>
      <point x="38" y="683.7" type="line"/>
      <point x="128" y="650" type="line"/>
      <point x="128" y="150" type="line"/>
      <point x="40" y="114" type="line"/>
      <point x="40" y="0" type="line"/>
      <point x="360" y="0" type="line"/>
      <point x="360" y="114" type="line"/>
      <point x="281" y="148" type="line"/>
      <point x="281" y="327" type="line"/>
      <point x="276" y="484" type="line"/>
      <point x="450.942" y="148" type="line"/>
      <point x="432" y="114" type="line"/>
      <point x="432" y="-1" type="line"/>
      <point x="724" y="0" type="line"/>
      <point x="724" y="113" type="line"/>
      <point x="699" y="149" type="line"/>
      <point x="699" y="653" type="line"/>
      <point x="788" y="684" type="line"/>
    </contour>
    <contour>
      <point x="513" y="947" type="line"/>
      <point x="513" y="921"/>
      <point x="498" y="914"/>
      <point x="480" y="914" type="curve" smooth="yes"/>
      <point x="442" y="914"/>
      <point x="395" y="962"/>
      <point x="331" y="962" type="curve" smooth="yes"/>
      <point x="277" y="962"/>
      <point x="228" y="931"/>
      <point x="228" y="843" type="curve"/>
      <point x="313" y="843" type="line"/>
      <point x="313" y="869"/>
      <point x="328" y="876"/>
      <point x="346" y="876" type="curve" smooth="yes"/>
      <point x="384" y="876"/>
      <point x="431" y="828"/>
      <point x="495" y="828" type="curve" smooth="yes"/>
      <point x="549" y="828"/>
      <point x="598" y="859"/>
      <point x="598" y="947" type="curve"/>
    </contour>
  </outline>
  <lib>
    <dict>
      <key>com.fontlab.hintData</key>
      <dict>
        <key>hhints</key>
        <array>
          <dict>
            <key>position</key>
            <integer>828</integer>
            <key>width</key>
            <integer>86</integer>
          </dict>
          <dict>
            <key>position</key>
            <integer>876</integer>
            <key>width</key>
            <integer>86</integer>
          </dict>
        </array>
        <key>vhints</key>
        <array>
          <dict>
            <key>position</key>
            <integer>228</integer>
            <key>width</key>
            <integer>85</integer>
          </dict>
          <dict>
            <key>position</key>
            <integer>513</integer>
            <key>width</key>
            <integer>85</integer>
          </dict>
        </array>
      </dict>
    </dict>
  </lib>
</glyph>
