<?xml version="1.0" encoding="UTF-8"?>
<glyph name="numero" format="1">
  <advance width="1199"/>
  <unicode hex="2116"/>
  <outline>
    <contour>
      <point x="753" y="799.7" type="line"/>
      <point x="449" y="799.7" type="line"/>
      <point x="449" y="683.7" type="line"/>
      <point x="542" y="654" type="line"/>
      <point x="542" y="453" type="line"/>
      <point x="547" y="296" type="line"/>
      <point x="364.973" y="647" type="line"/>
      <point x="385" y="683.7" type="line"/>
      <point x="385" y="800" type="line"/>
      <point x="35" y="799.7" type="line"/>
      <point x="35" y="683.7" type="line"/>
      <point x="125" y="650" type="line"/>
      <point x="125" y="150" type="line"/>
      <point x="37" y="114" type="line"/>
      <point x="37" y="0" type="line"/>
      <point x="357" y="0" type="line"/>
      <point x="357" y="114" type="line"/>
      <point x="278" y="148" type="line"/>
      <point x="278" y="327" type="line"/>
      <point x="273" y="484" type="line"/>
      <point x="447.942" y="148" type="line"/>
      <point x="429" y="114" type="line"/>
      <point x="429" y="-1" type="line"/>
      <point x="721" y="0" type="line"/>
      <point x="721" y="113" type="line"/>
      <point x="696" y="149" type="line"/>
      <point x="696" y="653" type="line"/>
      <point x="753" y="683.7" type="line"/>
    </contour>
    <contour>
      <point x="1164" y="570" type="curve" smooth="yes"/>
      <point x="1164" y="600" type="line" smooth="yes"/>
      <point x="1164" y="716"/>
      <point x="1104" y="794"/>
      <point x="973" y="794" type="curve" smooth="yes"/>
      <point x="842" y="794"/>
      <point x="783" y="716"/>
      <point x="783" y="600" type="curve" smooth="yes"/>
      <point x="783" y="570" type="line" smooth="yes"/>
      <point x="783" y="455"/>
      <point x="842" y="377"/>
      <point x="973" y="377" type="curve" smooth="yes"/>
      <point x="1104" y="377"/>
      <point x="1164" y="455"/>
    </contour>
    <contour>
      <point x="792" y="181" type="line"/>
      <point x="1155" y="181" type="line"/>
      <point x="1155" y="300" type="line"/>
      <point x="792" y="300" type="line"/>
    </contour>
    <contour>
      <point x="920" y="570" type="curve" smooth="yes"/>
      <point x="920" y="600" type="line" smooth="yes"/>
      <point x="920" y="649"/>
      <point x="936" y="676"/>
      <point x="973" y="676" type="curve" smooth="yes"/>
      <point x="1011" y="676"/>
      <point x="1027" y="649"/>
      <point x="1027" y="600" type="curve" smooth="yes"/>
      <point x="1027" y="570" type="line" smooth="yes"/>
      <point x="1027" y="522"/>
      <point x="1011" y="495"/>
      <point x="973" y="495" type="curve" smooth="yes"/>
      <point x="936" y="495"/>
      <point x="920" y="522"/>
    </contour>
  </outline>
  <lib>
    <dict>
      <key>com.fontlab.hintData</key>
      <dict>
        <key>hhints</key>
        <array>
          <dict>
            <key>position</key>
            <integer>377</integer>
            <key>width</key>
            <integer>118</integer>
          </dict>
          <dict>
            <key>position</key>
            <integer>676</integer>
            <key>width</key>
            <integer>118</integer>
          </dict>
        </array>
        <key>vhints</key>
        <array>
          <dict>
            <key>position</key>
            <integer>783</integer>
            <key>width</key>
            <integer>137</integer>
          </dict>
          <dict>
            <key>position</key>
            <integer>1027</integer>
            <key>width</key>
            <integer>137</integer>
          </dict>
        </array>
      </dict>
    </dict>
  </lib>
</glyph>
