<?xml version="1.0" encoding="UTF-8"?>
<glyph name="questiondown.cap" format="1">
  <advance width="525"/>
  <unicode hex="E444"/>
  <outline>
    <contour>
      <point x="260" y="126" type="curve" smooth="yes"/>
      <point x="210" y="126"/>
      <point x="193" y="154"/>
      <point x="193" y="201" type="curve" smooth="yes"/>
      <point x="193" y="290"/>
      <point x="338" y="363"/>
      <point x="324" y="552" type="curve"/>
      <point x="213" y="552" type="line"/>
      <point x="199" y="363"/>
      <point x="34" y="389"/>
      <point x="34" y="188" type="curve" smooth="yes"/>
      <point x="34" y="88"/>
      <point x="84" y="-13"/>
      <point x="260" y="-13" type="curve" smooth="yes"/>
      <point x="433" y="-13"/>
      <point x="492" y="79"/>
      <point x="492" y="246" type="curve" smooth="yes"/>
      <point x="492" y="264" type="line"/>
      <point x="333" y="264" type="line"/>
      <point x="333" y="166"/>
      <point x="315" y="126"/>
    </contour>
    <contour>
      <point x="185" y="613" type="line"/>
      <point x="351" y="613" type="line"/>
      <point x="351" y="780" type="line"/>
      <point x="185" y="780" type="line"/>
    </contour>
  </outline>
  <lib>
    <dict>
      <key>com.fontlab.hintData</key>
      <dict>
        <key>hhints</key>
        <array>
          <dict>
            <key>position</key>
            <integer>-13</integer>
            <key>width</key>
            <integer>139</integer>
          </dict>
        </array>
        <key>vhints</key>
        <array>
          <dict>
            <key>position</key>
            <integer>34</integer>
            <key>width</key>
            <integer>159</integer>
          </dict>
          <dict>
            <key>position</key>
            <integer>333</integer>
            <key>width</key>
            <integer>159</integer>
          </dict>
        </array>
      </dict>
    </dict>
  </lib>
</glyph>
