<?xml version="1.0" encoding="UTF-8"?>
<glyph name="Scommaaccent" format="1">
  <advance width="636"/>
  <unicode hex="0218"/>
  <outline>
    <contour>
      <point x="295" y="326" type="curve" smooth="yes"/>
      <point x="408" y="311"/>
      <point x="437" y="280"/>
      <point x="437" y="224" type="curve" smooth="yes"/>
      <point x="437" y="219" type="line" smooth="yes"/>
      <point x="437" y="167"/>
      <point x="400" y="127"/>
      <point x="325" y="127" type="curve" smooth="yes"/>
      <point x="316" y="127" type="line" smooth="yes"/>
      <point x="241" y="127"/>
      <point x="201" y="168"/>
      <point x="201" y="266" type="curve"/>
      <point x="39" y="266" type="line"/>
      <point x="39" y="259" type="line"/>
      <point x="39" y="257" type="line"/>
      <point x="39" y="249" type="line"/>
      <point x="39" y="-19.667" type="line"/>
      <point x="134" y="-19.667" type="line"/>
      <point x="151.422" y="22.2061" type="line"/>
      <point x="195.257" y="-1.67578"/>
      <point x="251.621" y="-13"/>
      <point x="320" y="-13" type="curve" smooth="yes"/>
      <point x="503" y="-13"/>
      <point x="602" y="74"/>
      <point x="602" y="224" type="curve" smooth="yes"/>
      <point x="602" y="234" type="line" smooth="yes"/>
      <point x="602" y="379"/>
      <point x="516" y="437"/>
      <point x="346" y="460" type="curve" smooth="yes"/>
      <point x="232" y="475"/>
      <point x="209" y="505"/>
      <point x="209" y="562" type="curve" smooth="yes"/>
      <point x="209" y="567" type="line" smooth="yes"/>
      <point x="209" y="617"/>
      <point x="247" y="653"/>
      <point x="312" y="653" type="curve" smooth="yes"/>
      <point x="321" y="653" type="line" smooth="yes"/>
      <point x="344.044" y="653"/>
      <point x="363.06" y="649.288"/>
      <point x="378.492" y="641.688" type="curve" smooth="yes"/>
      <point x="386.686" y="637.044"/>
      <point x="393.782" y="632.063"/>
      <point x="399.901" y="626.473" type="curve" smooth="yes"/>
      <point x="423.878" y="602.612"/>
      <point x="434" y="562.286"/>
      <point x="434" y="504" type="curve"/>
      <point x="596" y="504" type="line"/>
      <point x="596" y="511" type="line"/>
      <point x="596" y="521" type="line"/>
      <point x="596" y="525" type="line"/>
      <point x="596" y="801" type="line"/>
      <point x="501" y="801" type="line"/>
      <point x="487.215" y="758.955" type="line"/>
      <point x="444.875" y="781.857"/>
      <point x="389.517" y="793"/>
      <point x="320" y="793" type="curve" smooth="yes"/>
      <point x="142" y="793"/>
      <point x="45" y="702"/>
      <point x="45" y="561" type="curve" smooth="yes"/>
      <point x="45" y="550" type="line" smooth="yes"/>
      <point x="45" y="409"/>
      <point x="125" y="349"/>
    </contour>
    <contour>
      <point x="391" y="-44" type="line"/>
      <point x="249" y="-44" type="line"/>
      <point x="249" y="-136" type="line"/>
      <point x="328" y="-136" type="line"/>
      <point x="315" y="-163"/>
      <point x="286" y="-172"/>
      <point x="244" y="-172" type="curve"/>
      <point x="244" y="-226" type="line"/>
      <point x="343" y="-226"/>
      <point x="391" y="-190"/>
      <point x="391" y="-101" type="curve" smooth="yes"/>
    </contour>
  </outline>
  <lib>
    <dict>
      <key>com.fontlab.hintData</key>
      <dict>
        <key>hhints</key>
        <array>
          <dict>
            <key>position</key>
            <integer>-226</integer>
            <key>width</key>
            <integer>54</integer>
          </dict>
          <dict>
            <key>position</key>
            <integer>-13</integer>
            <key>width</key>
            <integer>140</integer>
          </dict>
          <dict>
            <key>position</key>
            <integer>653</integer>
            <key>width</key>
            <integer>140</integer>
          </dict>
        </array>
        <key>vhints</key>
        <array>
          <dict>
            <key>position</key>
            <integer>39</integer>
            <key>width</key>
            <integer>162</integer>
          </dict>
          <dict>
            <key>position</key>
            <integer>45</integer>
            <key>width</key>
            <integer>164</integer>
          </dict>
          <dict>
            <key>position</key>
            <integer>249</integer>
            <key>width</key>
            <integer>142</integer>
          </dict>
          <dict>
            <key>position</key>
            <integer>434</integer>
            <key>width</key>
            <integer>162</integer>
          </dict>
        </array>
      </dict>
    </dict>
  </lib>
</glyph>
