<?xml version="1.0" encoding="UTF-8"?>
<glyph name="scircumflex" format="1">
  <advance width="519"/>
  <unicode hex="015D"/>
  <outline>
    <contour>
      <point x="259" y="107" type="curve" smooth="yes"/>
      <point x="206" y="107"/>
      <point x="187" y="133"/>
      <point x="187" y="168" type="curve"/>
      <point x="30" y="168" type="line"/>
      <point x="30" y="163" type="line" smooth="yes"/>
      <point x="30" y="60"/>
      <point x="104" y="-13"/>
      <point x="259" y="-13" type="curve" smooth="yes"/>
      <point x="412" y="-13"/>
      <point x="489" y="55"/>
      <point x="489" y="165" type="curve" smooth="yes"/>
      <point x="489" y="174" type="line" smooth="yes"/>
      <point x="489" y="286"/>
      <point x="401" y="313"/>
      <point x="268" y="324" type="curve" smooth="yes"/>
      <point x="207" y="329"/>
      <point x="192" y="343"/>
      <point x="192" y="375" type="curve" smooth="yes"/>
      <point x="192" y="404"/>
      <point x="215" y="423"/>
      <point x="259" y="423" type="curve" smooth="yes"/>
      <point x="307" y="423"/>
      <point x="327" y="398"/>
      <point x="327" y="356" type="curve"/>
      <point x="482" y="356" type="line"/>
      <point x="482" y="361" type="line" smooth="yes"/>
      <point x="482" y="475"/>
      <point x="415" y="543"/>
      <point x="259" y="543" type="curve" smooth="yes"/>
      <point x="133" y="543"/>
      <point x="36" y="492"/>
      <point x="36" y="370" type="curve" smooth="yes"/>
      <point x="36" y="361" type="line" smooth="yes"/>
      <point x="36" y="261"/>
      <point x="101" y="224"/>
      <point x="251" y="212" type="curve" smooth="yes"/>
      <point x="313" y="207"/>
      <point x="330" y="192"/>
      <point x="330" y="159" type="curve" smooth="yes"/>
      <point x="330" y="129"/>
      <point x="310" y="107"/>
    </contour>
    <contour>
      <point x="187" y="596" type="line"/>
      <point x="259" y="678" type="line"/>
      <point x="331" y="596" type="line"/>
      <point x="469" y="596" type="line"/>
      <point x="335" y="780" type="line"/>
      <point x="183" y="780" type="line"/>
      <point x="49" y="596" type="line"/>
    </contour>
  </outline>
  <lib>
    <dict>
      <key>com.fontlab.hintData</key>
      <dict>
        <key>hhints</key>
        <array>
          <dict>
            <key>position</key>
            <integer>-13</integer>
            <key>width</key>
            <integer>120</integer>
          </dict>
          <dict>
            <key>position</key>
            <integer>423</integer>
            <key>width</key>
            <integer>120</integer>
          </dict>
        </array>
        <key>vhints</key>
        <array>
          <dict>
            <key>position</key>
            <integer>36</integer>
            <key>width</key>
            <integer>156</integer>
          </dict>
          <dict>
            <key>position</key>
            <integer>330</integer>
            <key>width</key>
            <integer>159</integer>
          </dict>
        </array>
      </dict>
    </dict>
  </lib>
</glyph>
