<?xml version="1.0" encoding="UTF-8"?>
<glyph name="Thorn" format="1">
  <advance width="605"/>
  <unicode hex="00DE"/>
  <outline>
    <contour>
      <point x="207" y="780" type="line"/>
      <point x="45" y="780" type="line"/>
      <point x="45" y="0" type="line"/>
      <point x="207" y="0" type="line"/>
      <point x="207" y="140" type="line"/>
      <point x="301" y="140" type="line" smooth="yes"/>
      <point x="428" y="140"/>
      <point x="572" y="173"/>
      <point x="572" y="380" type="curve" smooth="yes"/>
      <point x="572" y="400" type="line" smooth="yes"/>
      <point x="572" y="607"/>
      <point x="428" y="640"/>
      <point x="301" y="640" type="curve" smooth="yes"/>
      <point x="207" y="640" type="line"/>
    </contour>
    <contour>
      <point x="207" y="280" type="line"/>
      <point x="207" y="500" type="line"/>
      <point x="308" y="500" type="line" smooth="yes"/>
      <point x="352" y="500"/>
      <point x="408" y="483"/>
      <point x="408" y="395" type="curve" smooth="yes"/>
      <point x="408" y="385" type="line" smooth="yes"/>
      <point x="408" y="297"/>
      <point x="352" y="280"/>
      <point x="308" y="280" type="curve" smooth="yes"/>
    </contour>
  </outline>
  <lib>
    <dict>
      <key>com.fontlab.hintData</key>
      <dict>
        <key>hhints</key>
        <array>
          <dict>
            <key>position</key>
            <integer>140</integer>
            <key>width</key>
            <integer>140</integer>
          </dict>
          <dict>
            <key>position</key>
            <integer>500</integer>
            <key>width</key>
            <integer>140</integer>
          </dict>
        </array>
        <key>vhints</key>
        <array>
          <dict>
            <key>position</key>
            <integer>408</integer>
            <key>width</key>
            <integer>164</integer>
          </dict>
        </array>
      </dict>
    </dict>
  </lib>
</glyph>
