<?xml version="1.0" encoding="UTF-8"?>
<glyph name="three" format="1">
  <advance width="592"/>
  <unicode hex="0033"/>
  <outline>
    <contour>
      <point x="195" y="250" type="curve"/>
      <point x="35" y="250" type="line"/>
      <point x="35" y="237" type="line" smooth="yes"/>
      <point x="35" y="77"/>
      <point x="121" y="-13"/>
      <point x="296" y="-13" type="curve" smooth="yes"/>
      <point x="483" y="-13"/>
      <point x="557" y="110"/>
      <point x="557" y="209" type="curve" smooth="yes"/>
      <point x="557" y="228" type="line" smooth="yes"/>
      <point x="557" y="314"/>
      <point x="515" y="368"/>
      <point x="461" y="399" type="curve"/>
      <point x="512" y="429"/>
      <point x="552" y="483"/>
      <point x="552" y="566" type="curve" smooth="yes"/>
      <point x="552" y="585" type="line" smooth="yes"/>
      <point x="552" y="679"/>
      <point x="486" y="793"/>
      <point x="296" y="793" type="curve" smooth="yes"/>
      <point x="253.478" y="793"/>
      <point x="205.034" y="788.479"/>
      <point x="167.407" y="757.645" type="curve"/>
      <point x="153" y="792" type="line"/>
      <point x="41" y="792" type="line"/>
      <point x="41" y="571.082" type="line" smooth="yes"/>
      <point x="40.332" y="561.059"/>
      <point x="40" y="550.697"/>
      <point x="40" y="540" type="curve" smooth="yes"/>
      <point x="40" y="520" type="line"/>
      <point x="200" y="520" type="line"/>
      <point x="200" y="547.256"/>
      <point x="202.652" y="569.585"/>
      <point x="207.666" y="587.634" type="curve"/>
      <point x="208" y="588" type="line"/>
      <point x="207.932" y="588.578" type="line"/>
      <point x="221.257" y="635.381"/>
      <point x="250.688" y="653"/>
      <point x="291" y="653" type="curve" smooth="yes"/>
      <point x="301" y="653" type="line" smooth="yes"/>
      <point x="354" y="653"/>
      <point x="392" y="618"/>
      <point x="392" y="566" type="curve" smooth="yes"/>
      <point x="392" y="557" type="line" smooth="yes"/>
      <point x="392" y="497"/>
      <point x="358" y="468"/>
      <point x="300" y="468" type="curve" smooth="yes"/>
      <point x="196" y="468" type="line"/>
      <point x="196" y="328" type="line"/>
      <point x="303" y="328" type="line" smooth="yes"/>
      <point x="361" y="328"/>
      <point x="397" y="298"/>
      <point x="397" y="237" type="curve" smooth="yes"/>
      <point x="397" y="226" type="line" smooth="yes"/>
      <point x="397" y="157"/>
      <point x="351" y="127"/>
      <point x="301" y="127" type="curve" smooth="yes"/>
      <point x="291" y="127" type="line" smooth="yes"/>
      <point x="237" y="127"/>
      <point x="195" y="157"/>
    </contour>
  </outline>
  <lib>
    <dict>
      <key>com.fontlab.hintData</key>
      <dict>
        <key>hhints</key>
        <array>
          <dict>
            <key>position</key>
            <integer>-13</integer>
            <key>width</key>
            <integer>140</integer>
          </dict>
          <dict>
            <key>position</key>
            <integer>328</integer>
            <key>width</key>
            <integer>140</integer>
          </dict>
          <dict>
            <key>position</key>
            <integer>653</integer>
            <key>width</key>
            <integer>140</integer>
          </dict>
        </array>
        <key>vhints</key>
        <array>
          <dict>
            <key>position</key>
            <integer>41</integer>
            <key>width</key>
            <integer>159</integer>
          </dict>
          <dict>
            <key>position</key>
            <integer>397</integer>
            <key>width</key>
            <integer>160</integer>
          </dict>
        </array>
      </dict>
    </dict>
  </lib>
</glyph>
