<?xml version="1.0" encoding="UTF-8"?>
<glyph name="uni2197" format="1">
  <advance width="870"/>
  <unicode hex="2197"/>
  <outline>
    <contour>
      <point x="45" y="639" type="line"/>
      <point x="585" y="639" type="line"/>
      <point x="31" y="86" type="line"/>
      <point x="131" y="-14" type="line"/>
      <point x="684" y="540" type="line"/>
      <point x="684" y="0" type="line"/>
      <point x="825" y="0" type="line"/>
      <point x="825" y="780" type="line"/>
      <point x="45" y="780" type="line"/>
    </contour>
  </outline>
  <lib>
    <dict>
      <key>com.fontlab.hintData</key>
      <dict>
        <key>hhints</key>
        <array>
          <dict>
            <key>position</key>
            <integer>520</integer>
            <key>width</key>
            <integer>20</integer>
          </dict>
        </array>
      </dict>
    </dict>
  </lib>
</glyph>
