<?xml version="1.0" encoding="UTF-8"?>
<glyph name="y.random1" format="1">
  <advance width="520"/>
  <outline>
    <contour>
      <point x="357" y="154" type="line"/>
      <point x="338" y="125"/>
      <point x="300" y="83"/>
      <point x="228" y="83" type="curve"/>
      <point x="164" y="83"/>
      <point x="129" y="120"/>
      <point x="129" y="186" type="curve"/>
      <point x="129" y="500" type="line"/>
      <point x="30" y="500" type="line"/>
      <point x="30" y="170" type="line"/>
      <point x="30" y="72"/>
      <point x="81" y="-5"/>
      <point x="191" y="-5" type="curve"/>
      <point x="270" y="-5"/>
      <point x="324" y="16"/>
      <point x="357" y="58" type="curve"/>
      <point x="357" y="-27" type="line"/>
      <point x="357" y="-115"/>
      <point x="322" y="-158"/>
      <point x="235" y="-158" type="curve"/>
      <point x="147" y="-158"/>
      <point x="116" y="-113"/>
      <point x="116" y="-30" type="curve"/>
      <point x="20" y="-30" type="line"/>
      <point x="20" y="-46" type="line"/>
      <point x="20" y="-154"/>
      <point x="75" y="-242"/>
      <point x="236" y="-242" type="curve"/>
      <point x="390" y="-242"/>
      <point x="456" y="-159"/>
      <point x="457" y="-33" type="curve"/>
      <point x="457" y="157" type="line"/>
      <point x="457" y="500" type="line"/>
      <point x="357" y="500" type="line"/>
    </contour>
  </outline>
  <lib>
    <dict>
      <key>com.schriftgestaltung.Glyphs.lastChange</key>
      <string>2016-06-19 15:22:45 +0000</string>
      <key>com.typemytype.robofont.layerData</key>
      <dict>
      </dict>
    </dict>
  </lib>
</glyph>
